time_period_start;time_period_end;time_open;time_close;price_open;price_high;price_low;price_close;volume_traded;trades_count
2018-12-15T00:00:00.0000000Z;2018-12-16T00:00:00.0000000Z;2018-12-15T03:11:47.2660000Z;2018-12-15T23:57:57.1330000Z;3200.000000000;3312.320000000;3000.000000000;3183.470000000;283.213859000;1050
2018-12-16T00:00:00.0000000Z;2018-12-17T00:00:00.0000000Z;2018-12-16T00:01:23.5250000Z;2018-12-16T23:53:05.8200000Z;3183.470000000;3257.310000000;3178.540000000;3199.270000000;423.048529000;1506
2018-12-17T00:00:00.0000000Z;2018-12-18T00:00:00.0000000Z;2018-12-17T00:07:31.8880000Z;2018-12-17T23:51:48.6890000Z;3192.690000000;3587.350000000;3187.250000000;3494.650000000;1163.880320000;5059
2018-12-18T00:00:00.0000000Z;2018-12-19T00:00:00.0000000Z;2018-12-18T00:00:56.5730000Z;2018-12-18T23:59:56.1020000Z;3507.620000000;3683.350000000;3428.340000000;3670.110000000;1251.139627000;4707
2018-12-19T00:00:00.0000000Z;2018-12-20T00:00:00.0000000Z;2018-12-19T00:00:31.8250000Z;2018-12-19T23:59:42.1210000Z;3673.180000000;3920.000000000;3618.530000000;3676.320000000;2655.242827000;11297
2018-12-20T00:00:00.0000000Z;2018-12-21T00:00:00.0000000Z;2018-12-20T00:00:39.0580000Z;2018-12-20T23:59:36.6430000Z;3672.150000000;4170.000000000;3657.230000000;4074.680000000;2937.198749000;14569
2018-12-21T00:00:00.0000000Z;2018-12-22T00:00:00.0000000Z;2018-12-21T00:00:34.0190000Z;2018-12-21T23:59:43.2060000Z;4069.390000000;4152.350000000;3720.000000000;3842.200000000;1180.811489000;10858
2018-12-22T00:00:00.0000000Z;2018-12-23T00:00:00.0000000Z;2018-12-22T00:00:12.6530000Z;2018-12-22T23:59:44.7160000Z;3843.930000000;4030.000000000;3787.280000000;3981.710000000;758.812121000;5925
2018-12-23T00:00:00.0000000Z;2018-12-24T00:00:00.0000000Z;2018-12-23T00:00:36.5400000Z;2018-12-23T23:58:30.8120000Z;3974.140000000;4058.990000000;3835.000000000;3953.490000000;615.925935000;6208
2018-12-24T00:00:00.0000000Z;2018-12-25T00:00:00.0000000Z;2018-12-24T00:01:17.4380000Z;2018-12-24T23:59:46.2430000Z;3948.010000000;4299.000000000;3948.010000000;4032.500000000;1196.571801000;11076
2018-12-25T00:00:00.0000000Z;2018-12-26T00:00:00.0000000Z;2018-12-25T00:00:28.9090000Z;2018-12-25T23:59:50.1250000Z;4033.500000000;4039.040000000;3660.000000000;3780.000000000;792.837622000;9304
2018-12-26T00:00:00.0000000Z;2018-12-27T00:00:00.0000000Z;2018-12-26T00:00:19.7630000Z;2018-12-26T23:59:47.1450000Z;3778.090000000;3869.330000000;3665.000000000;3814.070000000;635.599876000;7173
2018-12-27T00:00:00.0000000Z;2018-12-28T00:00:00.0000000Z;2018-12-27T00:00:06.0040000Z;2018-12-27T23:59:43.5220000Z;3806.600000000;3845.180000000;3561.270000000;3591.910000000;1285.431305000;7956
2018-12-28T00:00:00.0000000Z;2018-12-29T00:00:00.0000000Z;2018-12-28T00:00:12.7280000Z;2018-12-28T23:58:07.5640000Z;3595.220000000;3960.680000000;3528.000000000;3885.330000000;1617.163594000;7624
2018-12-29T00:00:00.0000000Z;2018-12-30T00:00:00.0000000Z;2018-12-29T00:01:13.7870000Z;2018-12-29T23:59:55.1400000Z;3891.710000000;3938.270000000;3706.090000000;3730.620000000;847.900389000;5565
2018-12-30T00:00:00.0000000Z;2018-12-31T00:00:00.0000000Z;2018-12-30T00:00:08.0460000Z;2018-12-30T23:59:52.5890000Z;3732.910000000;3863.010000000;3685.000000000;3821.660000000;815.881988000;5194
2018-12-31T00:00:00.0000000Z;2019-01-01T00:00:00.0000000Z;2018-12-31T00:00:17.9750000Z;2018-12-31T23:59:58.8350000Z;3832.270000000;3833.850000000;3623.240000000;3692.000000000;810.640064000;6275
2019-01-01T00:00:00.0000000Z;2019-01-02T00:00:00.0000000Z;2019-01-01T00:00:00.8650000Z;2019-01-01T23:59:34.2270000Z;3692.000000000;3841.660000000;3650.000000000;3827.720000000;778.394764000;5038
2019-01-02T00:00:00.0000000Z;2019-01-03T00:00:00.0000000Z;2019-01-02T00:00:14.3360000Z;2019-01-02T23:58:41.0290000Z;3827.590000000;3917.190000000;3745.010000000;3887.770000000;637.598895000;6228
2019-01-03T00:00:00.0000000Z;2019-01-04T00:00:00.0000000Z;2019-01-03T00:01:21.5000000Z;2019-01-03T23:59:47.2660000Z;3893.580000000;3895.590000000;3745.000000000;3783.230000000;686.529169000;6363
2019-01-04T00:00:00.0000000Z;2019-01-05T00:00:00.0000000Z;2019-01-04T00:00:04.4290000Z;2019-01-04T23:59:56.7440000Z;3781.970000000;3852.130000000;3733.000000000;3817.750000000;1328.086074000;6220
2019-01-05T00:00:00.0000000Z;2019-01-06T00:00:00.0000000Z;2019-01-05T00:00:27.8200000Z;2019-01-05T23:59:33.7410000Z;3817.000000000;3872.620000000;3765.010000000;3805.010000000;911.223601000;5613
2019-01-06T00:00:00.0000000Z;2019-01-07T00:00:00.0000000Z;2019-01-06T00:02:14.7660000Z;2019-01-06T23:59:33.1420000Z;3796.620000000;4080.000000000;3761.000000000;4039.130000000;1126.145501000;7070
2019-01-07T00:00:00.0000000Z;2019-01-08T00:00:00.0000000Z;2019-01-07T00:00:14.6970000Z;2019-01-07T23:59:58.7810000Z;4039.000000000;4070.000000000;3963.000000000;4008.230000000;1748.044662000;6874
2019-01-08T00:00:00.0000000Z;2019-01-09T00:00:00.0000000Z;2019-01-08T00:00:00.1460000Z;2019-01-08T23:59:15.1710000Z;4008.230000000;4110.500000000;3940.790000000;3989.010000000;1642.021597000;8939
2019-01-09T00:00:00.0000000Z;2019-01-10T00:00:00.0000000Z;2019-01-09T00:01:37.9560000Z;2019-01-09T23:59:49.2710000Z;3990.000000000;4048.400000000;3968.130000000;3996.750000000;1724.607846000;10951
2019-01-10T00:00:00.0000000Z;2019-01-11T00:00:00.0000000Z;2019-01-10T00:00:11.9910000Z;2019-01-10T23:57:30.2970000Z;4002.770000000;4063.440000000;3575.450000000;3626.850000000;3688.974593000;18209
2019-01-11T00:00:00.0000000Z;2019-01-12T00:00:00.0000000Z;2019-01-11T00:01:11.7470000Z;2019-01-11T23:59:07.6090000Z;3626.830000000;3695.000000000;3564.560000000;3631.150000000;2214.903112000;15725
2019-01-12T00:00:00.0000000Z;2019-01-13T00:00:00.0000000Z;2019-01-12T00:00:25.8460000Z;2019-01-12T23:57:58.8880000Z;3630.180000000;3669.960000000;3570.010000000;3616.150000000;866.012426000;8000
2019-01-13T00:00:00.0000000Z;2019-01-14T00:00:00.0000000Z;2019-01-13T00:00:19.3950000Z;2019-01-13T23:58:46.2510000Z;3620.030000000;3652.000000000;3431.150000000;3509.210000000;1039.410959000;8986
2019-01-14T00:00:00.0000000Z;2019-01-15T00:00:00.0000000Z;2019-01-14T00:00:01.2300000Z;2019-01-14T23:59:37.5680000Z;3511.940000000;3712.010000000;3502.710000000;3668.880000000;1755.483208000;7420
2019-01-15T00:00:00.0000000Z;2019-01-16T00:00:00.0000000Z;2019-01-15T00:00:11.1520000Z;2019-01-15T23:59:51.4200000Z;3668.670000000;3682.000000000;3553.010000000;3584.220000000;2020.601722000;8292
2019-01-16T00:00:00.0000000Z;2019-01-17T00:00:00.0000000Z;2019-01-16T00:00:00.5040000Z;2019-01-16T23:58:36.1330000Z;3578.900000000;3670.620000000;3560.640000000;3610.240000000;2029.446774000;7388
2019-01-17T00:00:00.0000000Z;2019-01-18T00:00:00.0000000Z;2019-01-17T00:00:02.8900000Z;2019-01-17T23:59:41.3910000Z;3610.240000000;3650.000000000;3540.000000000;3648.460000000;1067.286646000;7115
2019-01-18T00:00:00.0000000Z;2019-01-19T00:00:00.0000000Z;2019-01-18T00:00:05.5710000Z;2019-01-18T23:59:35.8540000Z;3638.300000000;3642.960000000;3578.710000000;3610.080000000;1628.332621000;10803
2019-01-19T00:00:00.0000000Z;2019-01-20T00:00:00.0000000Z;2019-01-19T00:00:00.7930000Z;2019-01-19T23:59:59.5000000Z;3606.240000000;3748.000000000;3605.650000000;3682.090000000;734.122949000;7702
2019-01-20T00:00:00.0000000Z;2019-01-21T00:00:00.0000000Z;2019-01-20T00:00:08.2250000Z;2019-01-20T23:59:59.5220000Z;3681.000000000;3706.620000000;3477.820000000;3535.790000000;717.566194000;6421
2019-01-21T00:00:00.0000000Z;2019-01-22T00:00:00.0000000Z;2019-01-21T00:00:01.5440000Z;2019-01-21T23:58:48.9340000Z;3535.890000000;3560.280000000;3489.400000000;3526.190000000;675.300041000;6040
2019-01-22T00:00:00.0000000Z;2019-01-23T00:00:00.0000000Z;2019-01-22T00:01:40.0910000Z;2019-01-22T23:58:44.2400000Z;3529.600000000;3614.980000000;3436.590000000;3576.000000000;1394.138650000;10283
2019-01-23T00:00:00.0000000Z;2019-01-24T00:00:00.0000000Z;2019-01-23T00:00:06.3130000Z;2019-01-23T23:59:44.0920000Z;3576.000000000;3610.000000000;3519.890000000;3552.000000000;1181.603596000;8690
2019-01-24T00:00:00.0000000Z;2019-01-25T00:00:00.0000000Z;2019-01-24T00:00:04.7850000Z;2019-01-24T23:59:31.0650000Z;3551.950000000;3594.390000000;3527.160000000;3569.250000000;1390.603525000;11507
2019-01-25T00:00:00.0000000Z;2019-01-26T00:00:00.0000000Z;2019-01-25T00:00:16.6790000Z;2019-01-25T23:59:56.6480000Z;3565.680000000;3578.390000000;3515.560000000;3562.190000000;1049.407744000;10263
2019-01-26T00:00:00.0000000Z;2019-01-27T00:00:00.0000000Z;2019-01-26T00:00:00.6450000Z;2019-01-26T23:59:52.2220000Z;3562.190000000;3660.860000000;3528.510000000;3552.930000000;578.514628000;6614
2019-01-27T00:00:00.0000000Z;2019-01-28T00:00:00.0000000Z;2019-01-27T00:00:00.6880000Z;2019-01-27T23:59:33.0100000Z;3551.440000000;3565.000000000;3472.220000000;3531.360000000;920.793641000;12863
2019-01-28T00:00:00.0000000Z;2019-01-29T00:00:00.0000000Z;2019-01-28T00:00:03.9870000Z;2019-01-28T23:59:30.3020000Z;3527.660000000;3648.890000000;3373.700000000;3427.210000000;2156.488284000;17477
2019-01-29T00:00:00.0000000Z;2019-01-30T00:00:00.0000000Z;2019-01-29T00:00:14.5360000Z;2019-01-29T23:58:46.0630000Z;3427.210000000;3448.700000000;3344.910000000;3395.470000000;1089.704488000;9781
2019-01-30T00:00:00.0000000Z;2019-01-31T00:00:00.0000000Z;2019-01-30T00:00:14.5790000Z;2019-01-30T23:59:49.9010000Z;3395.260000000;3465.510000000;3368.000000000;3436.510000000;932.229674000;7963
2019-01-31T00:00:00.0000000Z;2019-02-01T00:00:00.0000000Z;2019-01-31T00:00:19.7360000Z;2019-01-31T23:59:58.5110000Z;3436.510000000;3470.710000000;3390.010000000;3409.390000000;1590.178573000;9712
2019-02-01T00:00:00.0000000Z;2019-02-02T00:00:00.0000000Z;2019-02-01T00:00:02.1510000Z;2019-02-01T23:59:39.7220000Z;3409.780000000;3462.590000000;3371.540000000;3432.260000000;1104.284433000;6859
2019-02-02T00:00:00.0000000Z;2019-02-03T00:00:00.0000000Z;2019-02-02T00:00:16.6810000Z;2019-02-02T23:59:06.0340000Z;3432.260000000;3485.850000000;3407.980000000;3465.050000000;387.637743000;3695
2019-02-03T00:00:00.0000000Z;2019-02-04T00:00:00.0000000Z;2019-02-03T00:00:17.4970000Z;2019-02-03T23:59:57.1820000Z;3468.510000000;3474.210000000;3383.930000000;3413.460000000;559.912027000;6962
2019-02-04T00:00:00.0000000Z;2019-02-05T00:00:00.0000000Z;2019-02-04T00:00:04.5350000Z;2019-02-04T23:57:37.9470000Z;3413.240000000;3437.970000000;3394.440000000;3413.250000000;484.331114000;4648
2019-02-05T00:00:00.0000000Z;2019-02-06T00:00:00.0000000Z;2019-02-05T00:00:31.6310000Z;2019-02-05T23:59:55.8990000Z;3408.490000000;3431.530000000;3352.000000000;3426.670000000;468.465693000;4864
2019-02-06T00:00:00.0000000Z;2019-02-07T00:00:00.0000000Z;2019-02-06T00:00:15.7190000Z;2019-02-06T23:59:59.9260000Z;3430.560000000;3443.320000000;3300.000000000;3366.000000000;822.321881000;7460
2019-02-07T00:00:00.0000000Z;2019-02-08T00:00:00.0000000Z;2019-02-07T00:00:12.7240000Z;2019-02-07T23:58:49.5610000Z;3366.000000000;3381.250000000;3350.000000000;3358.320000000;419.632832000;4151
2019-02-08T00:00:00.0000000Z;2019-02-09T00:00:00.0000000Z;2019-02-08T00:09:11.8470000Z;2019-02-08T23:58:48.0750000Z;3359.080000000;3721.300000000;3338.240000000;3621.340000000;1410.814164000;11042
2019-02-09T00:00:00.0000000Z;2019-02-10T00:00:00.0000000Z;2019-02-09T00:00:14.1750000Z;2019-02-09T23:59:15.9950000Z;3620.750000000;3650.000000000;3590.020000000;3626.540000000;641.866175000;6792
2019-02-10T00:00:00.0000000Z;2019-02-11T00:00:00.0000000Z;2019-02-10T00:00:03.7260000Z;2019-02-10T23:59:59.3180000Z;3626.540000000;3652.610000000;3573.010000000;3651.570000000;511.901304000;6686
2019-02-11T00:00:00.0000000Z;2019-02-12T00:00:00.0000000Z;2019-02-11T00:00:00.2100000Z;2019-02-11T23:59:49.1420000Z;3651.570000000;3652.610000000;3575.630000000;3591.320000000;396.040709000;4146
2019-02-12T00:00:00.0000000Z;2019-02-13T00:00:00.0000000Z;2019-02-12T00:00:04.4360000Z;2019-02-12T23:57:46.3620000Z;3591.320000000;3619.950000000;3542.060000000;3588.000000000;835.208271000;8640
2019-02-13T00:00:00.0000000Z;2019-02-14T00:00:00.0000000Z;2019-02-13T00:00:01.7880000Z;2019-02-13T23:59:56.6450000Z;3590.360000000;3627.000000000;3554.880000000;3574.440000000;752.751868000;7507
2019-02-14T00:00:00.0000000Z;2019-02-15T00:00:00.0000000Z;2019-02-14T00:00:00.7530000Z;2019-02-14T23:59:57.1060000Z;3572.570000000;3588.920000000;3520.100000000;3555.770000000;944.548886000;8521
2019-02-15T00:00:00.0000000Z;2019-02-16T00:00:00.0000000Z;2019-02-15T00:00:01.7910000Z;2019-02-15T23:59:49.9600000Z;3559.050000000;3617.080000000;3545.000000000;3563.720000000;742.997221000;6845
2019-02-16T00:00:00.0000000Z;2019-02-17T00:00:00.0000000Z;2019-02-16T00:00:03.5540000Z;2019-02-16T23:58:59.4180000Z;3568.980000000;3612.360000000;3560.910000000;3580.020000000;391.584095000;4866
2019-02-17T00:00:00.0000000Z;2019-02-18T00:00:00.0000000Z;2019-02-17T00:00:04.3000000Z;2019-02-17T23:57:02.1110000Z;3576.490000000;3650.000000000;3556.380000000;3628.540000000;510.604500000;6949
2019-02-18T00:00:00.0000000Z;2019-02-19T00:00:00.0000000Z;2019-02-18T00:00:04.3620000Z;2019-02-18T23:58:07.6460000Z;3628.540000000;3898.260000000;3613.870000000;3868.590000000;1359.735317000;12035
2019-02-19T00:00:00.0000000Z;2019-02-20T00:00:00.0000000Z;2019-02-19T00:00:01.3200000Z;2019-02-19T23:59:44.1540000Z;3874.010000000;3965.090000000;3756.680000000;3878.620000000;992.010424000;9874
2019-02-20T00:00:00.0000000Z;2019-02-21T00:00:00.0000000Z;2019-02-20T00:01:04.1970000Z;2019-02-20T23:59:58.6030000Z;3880.800000000;3950.000000000;3845.120000000;3939.800000000;805.475179000;9219
2019-02-21T00:00:00.0000000Z;2019-02-22T00:00:00.0000000Z;2019-02-21T00:00:04.4220000Z;2019-02-21T23:59:40.1790000Z;3939.920000000;3980.000000000;3863.460000000;3900.210000000;542.735562000;6725
2019-02-22T00:00:00.0000000Z;2019-02-23T00:00:00.0000000Z;2019-02-22T00:00:32.7940000Z;2019-02-22T23:59:56.4960000Z;3900.210000000;3955.170000000;3885.520000000;3934.440000000;427.880681000;5946
2019-02-23T00:00:00.0000000Z;2019-02-24T00:00:00.0000000Z;2019-02-23T00:00:03.4640000Z;2019-02-23T23:59:22.0640000Z;3934.530000000;4150.000000000;3910.000000000;4102.050000000;742.132061000;9353
2019-02-24T00:00:00.0000000Z;2019-02-25T00:00:00.0000000Z;2019-02-24T00:00:23.4800000Z;2019-02-24T23:59:20.4570000Z;4102.560000000;4184.270000000;3702.470000000;3721.640000000;1429.318411000;16239
2019-02-25T00:00:00.0000000Z;2019-02-26T00:00:00.0000000Z;2019-02-25T00:00:01.3680000Z;2019-02-25T23:59:47.3080000Z;3730.780000000;3864.040000000;3722.600000000;3814.200000000;1016.467502000;12843
2019-02-26T00:00:00.0000000Z;2019-02-27T00:00:00.0000000Z;2019-02-26T00:01:45.0020000Z;2019-02-26T23:59:30.3440000Z;3814.230000000;3830.890000000;3748.210000000;3792.180000000;986.959943000;8425
2019-02-27T00:00:00.0000000Z;2019-02-28T00:00:00.0000000Z;2019-02-27T00:00:09.4560000Z;2019-02-27T23:59:59.5100000Z;3791.550000000;3827.970000000;3655.250000000;3796.390000000;1213.994104000;11883
2019-02-28T00:00:00.0000000Z;2019-03-01T00:00:00.0000000Z;2019-02-28T00:00:01.1710000Z;2019-02-28T23:59:21.4090000Z;3796.320000000;3880.000000000;3756.660000000;3792.880000000;551.421154000;7965
2019-03-01T00:00:00.0000000Z;2019-03-02T00:00:00.0000000Z;2019-03-01T00:00:52.1620000Z;2019-03-01T23:58:56.5800000Z;3792.850000000;3844.140000000;3788.010000000;3805.640000000;502.279031000;5439
2019-03-02T00:00:00.0000000Z;2019-03-03T00:00:00.0000000Z;2019-03-02T00:00:54.1120000Z;2019-03-02T23:59:42.8710000Z;3805.640000000;3822.910000000;3755.450000000;3809.840000000;478.075059000;5404
2019-03-03T00:00:00.0000000Z;2019-03-04T00:00:00.0000000Z;2019-03-03T00:00:52.3290000Z;2019-03-03T23:59:30.5480000Z;3810.110000000;3820.300000000;3758.330000000;3784.630000000;469.563332000;5191
2019-03-04T00:00:00.0000000Z;2019-03-05T00:00:00.0000000Z;2019-03-04T00:00:00.7360000Z;2019-03-04T23:59:51.7770000Z;3784.630000000;3807.930000000;3666.000000000;3699.590000000;1201.527433000;9950
2019-03-05T00:00:00.0000000Z;2019-03-06T00:00:00.0000000Z;2019-03-05T00:01:02.0640000Z;2019-03-05T23:59:30.2810000Z;3700.320000000;3868.580000000;3688.510000000;3848.020000000;1169.933144000;9617
2019-03-06T00:00:00.0000000Z;2019-03-07T00:00:00.0000000Z;2019-03-06T00:00:02.6720000Z;2019-03-06T23:59:39.0010000Z;3847.280000000;3885.030000000;3793.780000000;3853.030000000;623.788007000;6484
2019-03-07T00:00:00.0000000Z;2019-03-08T00:00:00.0000000Z;2019-03-07T00:00:37.3750000Z;2019-03-07T23:57:56.0890000Z;3853.310000000;3898.600000000;3831.840000000;3860.080000000;569.795192000;6572
2019-03-08T00:00:00.0000000Z;2019-03-09T00:00:00.0000000Z;2019-03-08T00:00:47.3900000Z;2019-03-08T23:58:49.3250000Z;3858.030000000;3911.790000000;3765.200000000;3837.470000000;734.917858000;7216
2019-03-09T00:00:00.0000000Z;2019-03-10T00:00:00.0000000Z;2019-03-09T00:01:22.2960000Z;2019-03-09T23:59:53.5430000Z;3837.470000000;3949.990000000;3832.160000000;3920.220000000;705.347928000;7435
2019-03-10T00:00:00.0000000Z;2019-03-11T00:00:00.0000000Z;2019-03-10T00:00:15.1950000Z;2019-03-10T23:58:45.9650000Z;3920.520000000;3924.340000000;3869.410000000;3897.550000000;484.810463000;5216
2019-03-11T00:00:00.0000000Z;2019-03-12T00:00:00.0000000Z;2019-03-11T00:04:33.6370000Z;2019-03-11T23:59:56.1870000Z;3900.310000000;3914.470000000;3816.390000000;3852.280000000;797.867848000;6241
2019-03-12T00:00:00.0000000Z;2019-03-13T00:00:00.0000000Z;2019-03-12T00:00:16.7830000Z;2019-03-12T23:56:16.9140000Z;3850.980000000;3879.690000000;3805.570000000;3860.050000000;640.496523000;5468
2019-03-13T00:00:00.0000000Z;2019-03-14T00:00:00.0000000Z;2019-03-13T00:00:11.4290000Z;2019-03-13T23:59:31.5760000Z;3862.230000000;3874.570000000;3821.170000000;3850.380000000;678.357355000;6019
2019-03-14T00:00:00.0000000Z;2019-03-15T00:00:00.0000000Z;2019-03-14T00:00:07.3690000Z;2019-03-14T23:59:33.9200000Z;3850.220000000;3900.000000000;3786.000000000;3852.830000000;623.390865000;5871
2019-03-15T00:00:00.0000000Z;2019-03-16T00:00:00.0000000Z;2019-03-15T00:00:00.1820000Z;2019-03-15T23:58:18.9530000Z;3852.830000000;3910.870000000;3844.590000000;3900.230000000;434.309988000;3992
2019-03-16T00:00:00.0000000Z;2019-03-17T00:00:00.0000000Z;2019-03-16T00:00:13.3730000Z;2019-03-16T23:59:50.0990000Z;3900.210000000;4046.340000000;3896.410000000;3987.360000000;715.488598000;7409
2019-03-17T00:00:00.0000000Z;2019-03-18T00:00:00.0000000Z;2019-03-17T00:01:11.2900000Z;2019-03-17T23:59:38.3860000Z;3987.700000000;3990.930000000;3935.750000000;3967.010000000;354.119166000;4196
2019-03-18T00:00:00.0000000Z;2019-03-19T00:00:00.0000000Z;2019-03-18T00:00:10.9880000Z;2019-03-18T23:55:20.7320000Z;3964.970000000;4020.330000000;3926.620000000;3969.630000000;802.835617000;6189
2019-03-19T00:00:00.0000000Z;2019-03-20T00:00:00.0000000Z;2019-03-19T00:00:04.8950000Z;2019-03-19T23:59:58.4050000Z;3969.630000000;4010.000000000;3951.010000000;4000.320000000;670.886081000;7450
2019-03-20T00:00:00.0000000Z;2019-03-21T00:00:00.0000000Z;2019-03-20T00:01:24.4400000Z;2019-03-20T23:59:49.7700000Z;3997.680000000;4040.980000000;3963.120000000;4030.950000000;632.708689000;7010
2019-03-21T00:00:00.0000000Z;2019-03-22T00:00:00.0000000Z;2019-03-21T00:01:00.7350000Z;2019-03-21T23:59:54.1500000Z;4030.950000000;4053.150000000;3863.950000000;3970.400000000;1177.814012000;8397
2019-03-22T00:00:00.0000000Z;2019-03-23T00:00:00.0000000Z;2019-03-22T00:00:16.1520000Z;2019-03-22T23:59:57.5370000Z;3973.010000000;3997.990000000;3955.480000000;3979.410000000;450.702536000;4573
2019-03-23T00:00:00.0000000Z;2019-03-24T00:00:00.0000000Z;2019-03-23T00:01:13.8610000Z;2019-03-23T23:59:03.1000000Z;3981.570000000;4000.000000000;3958.770000000;3978.970000000;496.750515000;4194
2019-03-24T00:00:00.0000000Z;2019-03-25T00:00:00.0000000Z;2019-03-24T00:00:11.2420000Z;2019-03-24T23:58:16.0640000Z;3978.750000000;3981.840000000;3935.350000000;3973.060000000;324.479257000;3137
2019-03-25T00:00:00.0000000Z;2019-03-26T00:00:00.0000000Z;2019-03-25T00:03:57.3760000Z;2019-03-25T23:56:28.8100000Z;3970.640000000;3981.200000000;3861.250000000;3908.260000000;901.275698000;5333
2019-03-26T00:00:00.0000000Z;2019-03-27T00:00:00.0000000Z;2019-03-26T00:00:03.4650000Z;2019-03-26T23:59:28.7570000Z;3909.320000000;3923.550000000;3878.110000000;3922.540000000;764.297603000;5134
2019-03-27T00:00:00.0000000Z;2019-03-28T00:00:00.0000000Z;2019-03-27T00:00:03.1210000Z;2019-03-27T23:59:57.9310000Z;3923.330000000;4033.970000000;3909.340000000;4026.000000000;818.695441000;7351
2019-03-28T00:00:00.0000000Z;2019-03-29T00:00:00.0000000Z;2019-03-28T00:00:01.4810000Z;2019-03-28T23:58:46.8110000Z;4026.690000000;4031.250000000;3993.480000000;4008.230000000;598.334825000;4756
2019-03-29T00:00:00.0000000Z;2019-03-30T00:00:00.0000000Z;2019-03-29T00:00:08.6530000Z;2019-03-29T23:59:50.6230000Z;4011.990000000;4103.720000000;4006.000000000;4093.450000000;805.306657000;6627
2019-03-30T00:00:00.0000000Z;2019-03-31T00:00:00.0000000Z;2019-03-30T00:00:04.9630000Z;2019-03-30T23:59:46.4420000Z;4093.850000000;4130.000000000;4035.950000000;4094.930000000;501.430589000;5162
2019-03-31T00:00:00.0000000Z;2019-04-01T00:00:00.0000000Z;2019-03-31T00:00:04.2710000Z;2019-03-31T23:58:17.3610000Z;4096.100000000;4105.320000000;4070.480000000;4093.120000000;339.554294000;3053
2019-04-01T00:00:00.0000000Z;2019-04-02T00:00:00.0000000Z;2019-04-01T00:00:05.4600000Z;2019-04-01T23:59:32.7170000Z;4095.990000000;4149.010000000;4050.000000000;4135.240000000;758.787917000;7041
2019-04-02T00:00:00.0000000Z;2019-04-03T00:00:00.0000000Z;2019-04-02T00:00:03.1740000Z;2019-04-02T23:59:57.9300000Z;4138.150000000;4946.800000000;4130.510000000;4902.230000000;4038.092182000;28052
2019-04-03T00:00:00.0000000Z;2019-04-04T00:00:00.0000000Z;2019-04-03T00:00:05.8420000Z;2019-04-03T23:59:58.8350000Z;4902.230000000;5377.980000000;4674.000000000;4969.990000000;3465.329744000;29029
2019-04-04T00:00:00.0000000Z;2019-04-05T00:00:00.0000000Z;2019-04-04T00:00:01.3350000Z;2019-04-04T23:59:54.6120000Z;4962.630000000;5074.260000000;4783.480000000;4913.490000000;2012.041256000;16067
2019-04-05T00:00:00.0000000Z;2019-04-06T00:00:00.0000000Z;2019-04-05T00:00:03.1450000Z;2019-04-05T23:59:09.0350000Z;4912.750000000;5061.900000000;4886.000000000;5037.760000000;1457.619894000;10755
2019-04-06T00:00:00.0000000Z;2019-04-07T00:00:00.0000000Z;2019-04-06T00:00:02.3320000Z;2019-04-06T23:59:48.9300000Z;5040.990000000;5239.720000000;4923.980000000;5042.340000000;908.615992000;12121
2019-04-07T00:00:00.0000000Z;2019-04-08T00:00:00.0000000Z;2019-04-07T00:01:49.2450000Z;2019-04-07T23:59:46.1130000Z;5049.260000000;5261.060000000;5030.200000000;5192.300000000;798.235213000;9390
2019-04-08T00:00:00.0000000Z;2019-04-09T00:00:00.0000000Z;2019-04-08T00:00:06.1280000Z;2019-04-08T23:59:44.1030000Z;5197.140000000;5349.000000000;5125.000000000;5287.050000000;1746.264399000;15820
2019-04-09T00:00:00.0000000Z;2019-04-10T00:00:00.0000000Z;2019-04-09T00:00:02.4910000Z;2019-04-09T23:59:42.0160000Z;5289.920000000;5290.630000000;5140.000000000;5186.210000000;1120.244142000;10151
2019-04-10T00:00:00.0000000Z;2019-04-11T00:00:00.0000000Z;2019-04-10T00:00:02.4920000Z;2019-04-10T23:59:59.6390000Z;5189.390000000;5469.000000000;5015.000000000;5321.870000000;1115.837393000;11114
2019-04-11T00:00:00.0000000Z;2019-04-12T00:00:00.0000000Z;2019-04-11T00:00:00.4730000Z;2019-04-11T23:59:27.1540000Z;5324.490000000;5346.990000000;4973.670000000;5042.320000000;1878.265798000;17070
2019-04-12T00:00:00.0000000Z;2019-04-13T00:00:00.0000000Z;2019-04-12T00:00:16.2800000Z;2019-04-12T23:59:45.2330000Z;5040.080000000;5116.990000000;4903.540000000;5077.350000000;970.936539000;9377
2019-04-13T00:00:00.0000000Z;2019-04-14T00:00:00.0000000Z;2019-04-13T00:00:20.4070000Z;2019-04-13T23:59:11.3670000Z;5075.000000000;5136.600000000;5040.050000000;5069.250000000;400.687243000;5036
2019-04-14T00:00:00.0000000Z;2019-04-15T00:00:00.0000000Z;2019-04-14T00:00:06.0820000Z;2019-04-14T23:59:54.8440000Z;5071.640000000;5185.000000000;5020.000000000;5161.560000000;292.756019000;4136
2019-04-15T00:00:00.0000000Z;2019-04-16T00:00:00.0000000Z;2019-04-15T00:00:02.7300000Z;2019-04-15T23:59:58.4440000Z;5163.520000000;5193.770000000;4941.130000000;5028.090000000;681.509304000;9515
2019-04-16T00:00:00.0000000Z;2019-04-17T00:00:00.0000000Z;2019-04-16T00:00:12.0500000Z;2019-04-16T23:59:14.1030000Z;5025.820000000;5231.510000000;5013.110000000;5205.690000000;526.532304000;6746
2019-04-17T00:00:00.0000000Z;2019-04-18T00:00:00.0000000Z;2019-04-17T00:00:04.0140000Z;2019-04-17T23:59:37.5260000Z;5205.580000000;5271.950000000;5167.000000000;5229.000000000;554.855882000;5736
2019-04-18T00:00:00.0000000Z;2019-04-19T00:00:00.0000000Z;2019-04-18T00:00:02.7700000Z;2019-04-18T23:59:04.3970000Z;5229.000000000;5335.000000000;5218.440000000;5285.400000000;703.822579000;6298
2019-04-19T00:00:00.0000000Z;2019-04-20T00:00:00.0000000Z;2019-04-19T00:00:18.9100000Z;2019-04-19T23:59:43.0020000Z;5285.600000000;5350.210000000;5180.000000000;5283.000000000;525.940495000;6274
2019-04-20T00:00:00.0000000Z;2019-04-21T00:00:00.0000000Z;2019-04-20T00:00:09.1560000Z;2019-04-20T23:58:56.2210000Z;5286.650000000;5360.000000000;5252.000000000;5319.430000000;449.707867000;5705
2019-04-21T00:00:00.0000000Z;2019-04-22T00:00:00.0000000Z;2019-04-21T00:00:03.0810000Z;2019-04-21T23:59:22.0280000Z;5323.090000000;5346.130000000;5205.200000000;5297.000000000;615.306410000;7279
2019-04-22T00:00:00.0000000Z;2019-04-23T00:00:00.0000000Z;2019-04-22T00:00:03.8030000Z;2019-04-22T23:59:59.9430000Z;5300.590000000;5440.000000000;5251.480000000;5384.990000000;679.129993000;6825
2019-04-23T00:00:00.0000000Z;2019-04-24T00:00:00.0000000Z;2019-04-23T00:00:00.0090000Z;2019-04-23T23:59:55.1610000Z;5384.990000000;5650.000000000;5361.810000000;5529.750000000;1057.457634000;10688
2019-04-24T00:00:00.0000000Z;2019-04-25T00:00:00.0000000Z;2019-04-24T00:00:02.7260000Z;2019-04-24T23:59:05.3100000Z;5525.160000000;5628.460000000;5366.110000000;5438.080000000;1060.622503000;11000
2019-04-25T00:00:00.0000000Z;2019-04-26T00:00:00.0000000Z;2019-04-25T00:00:19.3570000Z;2019-04-25T23:59:59.9400000Z;5438.090000000;5519.990000000;4805.740000000;5132.100000000;2815.753120000;21974
2019-04-26T00:00:00.0000000Z;2019-04-27T00:00:00.0000000Z;2019-04-26T00:00:00.2910000Z;2019-04-26T23:59:57.7860000Z;5136.170000000;5283.600000000;5010.140000000;5149.990000000;4650.521132000;34473
2019-04-27T00:00:00.0000000Z;2019-04-28T00:00:00.0000000Z;2019-04-27T00:00:01.1290000Z;2019-04-27T23:59:30.4510000Z;5149.990000000;5220.990000000;5087.010000000;5166.710000000;869.854083000;8852
2019-04-28T00:00:00.0000000Z;2019-04-29T00:00:00.0000000Z;2019-04-28T00:00:56.2200000Z;2019-04-28T23:59:37.1570000Z;5166.940000000;5210.100000000;5095.000000000;5152.900000000;928.814400000;8730
2019-04-29T00:00:00.0000000Z;2019-04-30T00:00:00.0000000Z;2019-04-29T00:00:23.9640000Z;2019-04-29T23:59:53.7530000Z;5151.750000000;5187.000000000;5053.560000000;5145.560000000;1468.925896000;11656
2019-04-30T00:00:00.0000000Z;2019-05-01T00:00:00.0000000Z;2019-04-30T00:00:14.6030000Z;2019-04-30T23:59:21.7960000Z;5145.730000000;5288.760000000;5121.000000000;5267.820000000;1580.943200000;11480
2019-05-01T00:00:00.0000000Z;2019-05-02T00:00:00.0000000Z;2019-05-01T00:00:06.9740000Z;2019-05-01T23:59:56.4520000Z;5269.910000000;5353.960000000;5261.440000000;5320.370000000;1193.597382000;9695
2019-05-02T00:00:00.0000000Z;2019-05-03T00:00:00.0000000Z;2019-05-02T00:00:04.2890000Z;2019-05-02T23:59:34.2720000Z;5320.280000000;5420.980000000;5300.560000000;5389.510000000;1393.480458000;10629
2019-05-03T00:00:00.0000000Z;2019-05-04T00:00:00.0000000Z;2019-05-03T00:00:02.2270000Z;2019-05-03T23:59:28.4040000Z;5389.510000000;5786.090000000;5358.840000000;5657.640000000;3255.609702000;26484
2019-05-04T00:00:00.0000000Z;2019-05-05T00:00:00.0000000Z;2019-05-04T00:00:04.2560000Z;2019-05-04T23:59:50.3950000Z;5660.570000000;5825.000000000;5500.000000000;5768.160000000;2752.574674000;21722
2019-05-05T00:00:00.0000000Z;2019-05-06T00:00:00.0000000Z;2019-05-05T00:01:01.7440000Z;2019-05-05T23:59:49.6390000Z;5772.540000000;5785.000000000;5623.050000000;5713.840000000;1210.342754000;12343
2019-05-06T00:00:00.0000000Z;2019-05-07T00:00:00.0000000Z;2019-05-06T00:00:14.6380000Z;2019-05-06T23:59:59.6040000Z;5718.240000000;5753.980000000;5563.910000000;5690.190000000;1711.647803000;16445
2019-05-07T00:00:00.0000000Z;2019-05-08T00:00:00.0000000Z;2019-05-07T00:00:04.2490000Z;2019-05-07T23:59:58.8140000Z;5685.340000000;5969.530000000;5685.340000000;5746.020000000;2790.929445000;26322
2019-05-08T00:00:00.0000000Z;2019-05-09T00:00:00.0000000Z;2019-05-08T00:00:01.7800000Z;2019-05-08T23:59:57.1410000Z;5749.290000000;5978.900000000;5650.580000000;5933.710000000;1599.005516000;17052
2019-05-09T00:00:00.0000000Z;2019-05-10T00:00:00.0000000Z;2019-05-09T00:00:12.1600000Z;2019-05-09T23:59:09.5510000Z;5936.740000000;6171.040000000;5930.270000000;6143.000000000;3371.385517000;27400
2019-05-10T00:00:00.0000000Z;2019-05-11T00:00:00.0000000Z;2019-05-10T00:00:07.1370000Z;2019-05-10T23:59:22.9510000Z;6147.770000000;6414.020000000;6093.970000000;6318.800000000;2227.303783000;26810
2019-05-11T00:00:00.0000000Z;2019-05-12T00:00:00.0000000Z;2019-05-11T00:00:02.3360000Z;2019-05-11T23:59:58.9680000Z;6318.890000000;7350.000000000;6007.000000000;7061.120000000;3692.919975000;52614
2019-05-12T00:00:00.0000000Z;2019-05-13T00:00:00.0000000Z;2019-05-12T00:00:00.4420000Z;2019-05-12T23:56:58.1980000Z;7078.880000000;7535.580000000;6638.000000000;6947.860000000;3531.670058000;51418
2019-05-13T00:00:00.0000000Z;2019-05-14T00:00:00.0000000Z;2019-05-13T00:00:05.1140000Z;2019-05-13T23:59:47.1720000Z;6938.020000000;8150.000000000;6841.020000000;7796.560000000;3579.892905000;40959
2019-05-14T00:00:00.0000000Z;2019-05-15T00:00:00.0000000Z;2019-05-14T00:00:20.1410000Z;2019-05-14T23:58:53.1000000Z;7799.000000000;8358.880000000;7577.590000000;7973.630000000;3419.166175000;51327
2019-05-15T00:00:00.0000000Z;2019-05-16T00:00:00.0000000Z;2019-05-15T00:00:02.8140000Z;2019-05-15T23:59:58.6290000Z;7971.170000000;8300.000000000;7819.370000000;8210.390000000;1928.820624000;31568
2019-05-16T00:00:00.0000000Z;2019-05-17T00:00:00.0000000Z;2019-05-16T00:00:06.9610000Z;2019-05-16T23:59:56.9560000Z;8202.640000000;8395.470000000;7672.600000000;7866.190000000;3570.577446000;51774
2019-05-17T00:00:00.0000000Z;2019-05-18T00:00:00.0000000Z;2019-05-17T00:00:08.7540000Z;2019-05-17T23:59:49.6940000Z;7875.380000000;7942.620000000;6875.000000000;7366.000000000;5237.087057000;60144
2019-05-18T00:00:00.0000000Z;2019-05-19T00:00:00.0000000Z;2019-05-18T00:00:06.7030000Z;2019-05-18T23:59:57.5090000Z;7370.160000000;7511.730000000;7202.020000000;7262.010000000;1524.811550000;23711
2019-05-19T00:00:00.0000000Z;2019-05-20T00:00:00.0000000Z;2019-05-19T00:00:04.5310000Z;2019-05-19T23:59:59.9600000Z;7262.010000000;8320.000000000;7250.010000000;8200.000000000;3173.052644000;45307
2019-05-20T00:00:00.0000000Z;2019-05-21T00:00:00.0000000Z;2019-05-20T00:00:00.0760000Z;2019-05-20T23:59:59.6410000Z;8200.000000000;8214.990000000;7584.480000000;8005.000000000;3066.736458000;43323
2019-05-21T00:00:00.0000000Z;2019-05-22T00:00:00.0000000Z;2019-05-21T00:00:00.4450000Z;2019-05-21T23:59:51.7730000Z;8005.000000000;8107.630000000;7813.220000000;7949.830000000;2053.033037000;31468
2019-05-22T00:00:00.0000000Z;2019-05-23T00:00:00.0000000Z;2019-05-22T00:00:00.2220000Z;2019-05-22T23:59:59.4210000Z;7949.840000000;8033.000000000;7468.000000000;7624.560000000;2318.215091000;33458
2019-05-23T00:00:00.0000000Z;2019-05-24T00:00:00.0000000Z;2019-05-23T00:00:01.6740000Z;2019-05-23T23:59:57.5910000Z;7615.510000000;7977.480000000;7464.940000000;7878.120000000;2119.149365000;30956
2019-05-24T00:00:00.0000000Z;2019-05-25T00:00:00.0000000Z;2019-05-24T00:00:01.5850000Z;2019-05-24T23:59:45.7850000Z;7879.600000000;8177.200000000;7790.000000000;7999.770000000;2359.263496000;31292
2019-05-25T00:00:00.0000000Z;2019-05-26T00:00:00.0000000Z;2019-05-25T00:00:01.1090000Z;2019-05-25T23:59:53.5680000Z;8002.790000000;8160.000000000;7942.540000000;8072.580000000;1220.140701000;18106
2019-05-26T00:00:00.0000000Z;2019-05-27T00:00:00.0000000Z;2019-05-26T00:00:01.5510000Z;2019-05-26T23:59:51.1690000Z;8066.020000000;8787.000000000;7895.000000000;8733.120000000;2665.960640000;34540
2019-05-27T00:00:00.0000000Z;2019-05-28T00:00:00.0000000Z;2019-05-27T00:00:01.0700000Z;2019-05-27T23:59:57.2090000Z;8733.870000000;8948.920000000;8547.390000000;8785.450000000;3011.449337000;45118
2019-05-28T00:00:00.0000000Z;2019-05-29T00:00:00.0000000Z;2019-05-28T00:00:09.7820000Z;2019-05-28T23:59:42.0720000Z;8776.890000000;8820.080000000;8411.330000000;8729.990000000;1672.708613000;26467
2019-05-29T00:00:00.0000000Z;2019-05-30T00:00:00.0000000Z;2019-05-29T00:00:01.4710000Z;2019-05-29T23:59:36.2500000Z;8729.370000000;8776.480000000;8394.780000000;8663.210000000;1941.273299000;28905
2019-05-30T00:00:00.0000000Z;2019-05-31T00:00:00.0000000Z;2019-05-30T00:00:02.9100000Z;2019-05-30T23:59:52.8730000Z;8663.580000000;9088.000000000;7988.880000000;8271.580000000;3969.483077000;58600
2019-05-31T00:00:00.0000000Z;2019-06-01T00:00:00.0000000Z;2019-05-31T00:00:07.1170000Z;2019-05-31T23:59:59.9390000Z;8278.020000000;8588.400000000;8078.000000000;8561.800000000;2209.385915000;33915
2019-06-01T00:00:00.0000000Z;2019-06-02T00:00:00.0000000Z;2019-06-01T00:00:00.0970000Z;2019-06-01T23:59:52.4010000Z;8560.840000000;8633.950000000;8418.200000000;8559.240000000;1409.629598000;21446
2019-06-02T00:00:00.0000000Z;2019-06-03T00:00:00.0000000Z;2019-06-02T00:00:28.5800000Z;2019-06-02T23:59:58.3810000Z;8559.240000000;8842.830000000;8543.800000000;8743.600000000;1298.739094000;20680
2019-06-03T00:00:00.0000000Z;2019-06-04T00:00:00.0000000Z;2019-06-03T00:00:00.6000000Z;2019-06-03T23:59:59.8520000Z;8743.600000000;8752.450000000;8049.900000000;8103.210000000;2773.724101000;41009
2019-06-04T00:00:00.0000000Z;2019-06-05T00:00:00.0000000Z;2019-06-04T00:00:00.3140000Z;2019-06-04T23:59:59.8560000Z;8100.630000000;8100.630000000;7441.490000000;7665.290000000;4156.404675000;47796
2019-06-05T00:00:00.0000000Z;2019-06-06T00:00:00.0000000Z;2019-06-05T00:00:00.5870000Z;2019-06-05T23:59:16.9930000Z;7665.290000000;7915.000000000;7575.000000000;7795.350000000;1971.376335000;26572
2019-06-06T00:00:00.0000000Z;2019-06-07T00:00:00.0000000Z;2019-06-06T00:00:06.8700000Z;2019-06-06T23:59:40.6260000Z;7798.910000000;7886.260000000;7441.210000000;7804.800000000;1592.016587000;21753
2019-06-07T00:00:00.0000000Z;2019-06-08T00:00:00.0000000Z;2019-06-07T00:00:02.6840000Z;2019-06-07T23:59:56.3280000Z;7804.800000000;8136.980000000;7755.020000000;8002.920000000;1630.178362000;18929
2019-06-08T00:00:00.0000000Z;2019-06-09T00:00:00.0000000Z;2019-06-08T00:00:08.6840000Z;2019-06-08T23:59:20.0390000Z;8004.050000000;8062.870000000;7788.140000000;7925.670000000;854.973963000;12546
2019-06-09T00:00:00.0000000Z;2019-06-10T00:00:00.0000000Z;2019-06-09T00:00:01.9040000Z;2019-06-09T23:59:57.7210000Z;7925.670000000;7956.810000000;7505.580000000;7638.290000000;1517.493702000;19536
2019-06-10T00:00:00.0000000Z;2019-06-11T00:00:00.0000000Z;2019-06-10T00:00:03.5540000Z;2019-06-10T23:59:47.6430000Z;7638.300000000;8106.620000000;7524.350000000;8013.900000000;1787.544569000;20373
2019-06-11T00:00:00.0000000Z;2019-06-12T00:00:00.0000000Z;2019-06-11T00:00:12.4940000Z;2019-06-11T23:59:59.9990000Z;8026.010000000;8066.070000000;7708.440000000;7916.500000000;1767.983278000;16923
2019-06-12T00:00:00.0000000Z;2019-06-13T00:00:00.0000000Z;2019-06-12T00:00:00.0960000Z;2019-06-12T23:59:48.2020000Z;7916.500000000;8313.140000000;7825.180000000;8173.920000000;1984.350933000;17911
2019-06-13T00:00:00.0000000Z;2019-06-14T00:00:00.0000000Z;2019-06-13T00:00:02.3590000Z;2019-06-13T23:58:49.9260000Z;8173.670000000;8339.930000000;8050.470000000;8242.850000000;1606.796120000;18875
2019-06-14T00:00:00.0000000Z;2019-06-15T00:00:00.0000000Z;2019-06-14T00:00:19.7460000Z;2019-06-14T23:59:49.3240000Z;8232.910000000;8725.000000000;8175.000000000;8690.900000000;2390.063379000;24465
2019-06-15T00:00:00.0000000Z;2019-06-16T00:00:00.0000000Z;2019-06-15T00:00:04.7860000Z;2019-06-15T23:59:15.1380000Z;8691.030000000;8896.000000000;8608.810000000;8855.000000000;1421.209270000;16249
2019-06-16T00:00:00.0000000Z;2019-06-17T00:00:00.0000000Z;2019-06-16T00:00:01.2960000Z;2019-06-16T23:59:56.0660000Z;8855.000000000;9386.370000000;8800.030000000;8988.070000000;3126.480294000;34126
2019-06-17T00:00:00.0000000Z;2019-06-18T00:00:00.0000000Z;2019-06-17T00:00:03.9300000Z;2019-06-17T23:59:45.0700000Z;8976.600000000;9490.000000000;8950.000000000;9328.360000000;2226.798286000;26277
2019-06-18T00:00:00.0000000Z;2019-06-19T00:00:00.0000000Z;2019-06-18T00:00:02.6100000Z;2019-06-18T23:59:58.0610000Z;9328.550000000;9365.090000000;8938.570000000;9077.190000000;1949.218631000;21847
2019-06-19T00:00:00.0000000Z;2019-06-20T00:00:00.0000000Z;2019-06-19T00:00:01.0770000Z;2019-06-19T23:59:30.3330000Z;9077.190000000;9343.430000000;9037.680000000;9280.000000000;1135.144113000;13359
2019-06-20T00:00:00.0000000Z;2019-06-21T00:00:00.0000000Z;2019-06-20T00:00:50.3850000Z;2019-06-20T23:59:24.8060000Z;9290.220000000;9611.490000000;9212.010000000;9538.170000000;1933.126416000;19235
2019-06-21T00:00:00.0000000Z;2019-06-22T00:00:00.0000000Z;2019-06-21T00:00:32.7790000Z;2019-06-21T23:59:56.0460000Z;9555.000000000;10243.980000000;9552.620000000;10225.860000000;2242.317050000;27566
2019-06-22T00:00:00.0000000Z;2019-06-23T00:00:00.0000000Z;2019-06-22T00:00:00.9310000Z;2019-06-22T23:59:46.7570000Z;10203.260000000;11200.910000000;10037.520000000;10692.180000000;4815.878272000;64409
2019-06-23T00:00:00.0000000Z;2019-06-24T00:00:00.0000000Z;2019-06-23T00:00:04.6370000Z;2019-06-23T23:59:40.7800000Z;10685.010000000;11290.000000000;10490.340000000;10847.250000000;1992.822150000;30767
2019-06-24T00:00:00.0000000Z;2019-06-25T00:00:00.0000000Z;2019-06-24T00:00:00.6060000Z;2019-06-24T23:59:53.4570000Z;10829.630000000;11110.160000000;10552.690000000;11028.390000000;1753.642979000;24031
2019-06-25T00:00:00.0000000Z;2019-06-26T00:00:00.0000000Z;2019-06-25T00:00:01.2840000Z;2019-06-25T23:59:48.6560000Z;11027.410000000;11791.000000000;10993.740000000;11768.310000000;2777.787628000;36508
2019-06-26T00:00:00.0000000Z;2019-06-27T00:00:00.0000000Z;2019-06-26T00:00:03.4890000Z;2019-06-26T23:59:55.1960000Z;11768.100000000;13864.420000000;11265.000000000;12940.000000000;7704.460359000;103743
2019-06-27T00:00:00.0000000Z;2019-06-28T00:00:00.0000000Z;2019-06-27T00:00:00.3770000Z;2019-06-27T23:59:53.9660000Z;12938.910000000;13350.000000000;10300.000000000;11133.250000000;6467.619387000;104815
2019-06-28T00:00:00.0000000Z;2019-06-29T00:00:00.0000000Z;2019-06-28T00:00:03.4150000Z;2019-06-28T23:59:40.9090000Z;11159.960000000;12439.660000000;10769.680000000;12366.620000000;3900.839546000;62404
2019-06-29T00:00:00.0000000Z;2019-06-30T00:00:00.0000000Z;2019-06-29T00:00:01.3300000Z;2019-06-29T23:59:58.1050000Z;12362.980000000;12392.720000000;11358.680000000;11867.610000000;3375.057726000;52627
2019-06-30T00:00:00.0000000Z;2019-07-01T00:00:00.0000000Z;2019-06-30T00:00:03.9760000Z;2019-06-30T23:59:59.5470000Z;11880.000000000;12189.990000000;10638.350000000;10748.930000000;3131.562694000;47208
2019-07-01T00:00:00.0000000Z;2019-07-02T00:00:00.0000000Z;2019-07-01T00:00:00.0860000Z;2019-07-01T23:59:52.9580000Z;10748.930000000;11210.000000000;9975.310000000;10587.390000000;3957.940776000;53675
2019-07-02T00:00:00.0000000Z;2019-07-03T00:00:00.0000000Z;2019-07-02T00:00:00.7090000Z;2019-07-02T23:59:51.3370000Z;10573.530000000;10944.980000000;9668.330000000;10829.890000000;4726.030490000;61843
2019-07-03T00:00:00.0000000Z;2019-07-04T00:00:00.0000000Z;2019-07-03T00:00:03.3650000Z;2019-07-03T23:59:53.2270000Z;10830.460000000;12026.490000000;10829.890000000;11976.470000000;4139.173760000;55407
2019-07-04T00:00:00.0000000Z;2019-07-05T00:00:00.0000000Z;2019-07-04T00:00:00.8770000Z;2019-07-04T23:59:56.4400000Z;11980.730000000;12040.000000000;11042.790000000;11148.980000000;2264.354736000;36072
2019-07-05T00:00:00.0000000Z;2019-07-06T00:00:00.0000000Z;2019-07-05T00:00:00.6710000Z;2019-07-05T23:59:59.9740000Z;11142.850000000;11450.020000000;10775.000000000;10989.810000000;2036.644301000;31943
2019-07-06T00:00:00.0000000Z;2019-07-07T00:00:00.0000000Z;2019-07-06T00:00:00.4190000Z;2019-07-06T23:59:47.2900000Z;10989.810000000;11717.940000000;10972.470000000;11255.710000000;1621.176014000;27272
2019-07-07T00:00:00.0000000Z;2019-07-08T00:00:00.0000000Z;2019-07-07T00:00:13.9020000Z;2019-07-07T23:59:08.4180000Z;11240.360000000;11605.460000000;11103.350000000;11480.770000000;1335.916472000;21768
2019-07-08T00:00:00.0000000Z;2019-07-09T00:00:00.0000000Z;2019-07-08T00:00:00.3040000Z;2019-07-08T23:59:50.9160000Z;11476.590000000;12388.650000000;11350.000000000;12279.260000000;2062.726410000;29741
2019-07-09T00:00:00.0000000Z;2019-07-10T00:00:00.0000000Z;2019-07-09T00:00:38.2450000Z;2019-07-09T23:59:54.8840000Z;12283.290000000;12804.000000000;12090.000000000;12556.000000000;3172.841021000;48433
2019-07-10T00:00:00.0000000Z;2019-07-11T00:00:00.0000000Z;2019-07-10T00:00:00.8130000Z;2019-07-10T23:59:39.8050000Z;12573.530000000;13174.990000000;11550.000000000;12094.000000000;4219.526819000;66661
2019-07-11T00:00:00.0000000Z;2019-07-12T00:00:00.0000000Z;2019-07-11T00:00:02.3230000Z;2019-07-11T23:59:55.0070000Z;12094.310000000;12094.310000000;10993.530000000;11338.710000000;4047.929979000;66185
2019-07-12T00:00:00.0000000Z;2019-07-13T00:00:00.0000000Z;2019-07-12T00:00:00.6460000Z;2019-07-12T23:59:34.7210000Z;11335.230000000;11950.090000000;11085.000000000;11803.190000000;2354.687684000;37929
2019-07-13T00:00:00.0000000Z;2019-07-14T00:00:00.0000000Z;2019-07-13T00:00:06.2580000Z;2019-07-13T23:59:39.9250000Z;11788.720000000;11841.360000000;10807.470000000;11374.720000000;2431.309607000;36772
2019-07-14T00:00:00.0000000Z;2019-07-15T00:00:00.0000000Z;2019-07-14T00:00:01.3900000Z;2019-07-14T23:59:59.9170000Z;11370.070000000;11453.370000000;10101.000000000;10180.000000000;2657.938123000;46239
2019-07-15T00:00:00.0000000Z;2019-07-16T00:00:00.0000000Z;2019-07-15T00:00:02.4410000Z;2019-07-15T23:59:51.3220000Z;10183.760000000;11100.000000000;9867.760000000;10829.070000000;3826.768006000;52976
2019-07-16T00:00:00.0000000Z;2019-07-17T00:00:00.0000000Z;2019-07-16T00:00:01.7200000Z;2019-07-16T23:59:59.6340000Z;10829.810000000;11033.490000000;9359.000000000;9429.210000000;4977.072669000;61362
2019-07-17T00:00:00.0000000Z;2019-07-18T00:00:00.0000000Z;2019-07-17T00:00:00.8450000Z;2019-07-17T23:59:51.1300000Z;9419.720000000;10068.200000000;9077.000000000;9685.030000000;4289.375898000;51174
2019-07-18T00:00:00.0000000Z;2019-07-19T00:00:00.0000000Z;2019-07-18T00:00:05.0840000Z;2019-07-18T23:59:45.5900000Z;9685.100000000;10798.740000000;9272.000000000;10644.660000000;3429.585407000;40009
2019-07-19T00:00:00.0000000Z;2019-07-20T00:00:00.0000000Z;2019-07-19T00:00:00.7010000Z;2019-07-19T23:59:41.0660000Z;10642.800000000;10776.000000000;10110.000000000;10524.290000000;2387.754262000;31486
2019-07-20T00:00:00.0000000Z;2019-07-21T00:00:00.0000000Z;2019-07-20T00:00:03.4310000Z;2019-07-20T23:59:56.8350000Z;10521.260000000;11100.000000000;10354.670000000;10769.390000000;2126.534630000;27328
2019-07-21T00:00:00.0000000Z;2019-07-22T00:00:00.0000000Z;2019-07-21T00:00:01.1060000Z;2019-07-21T23:59:48.7190000Z;10761.250000000;10833.340000000;10300.000000000;10589.320000000;1245.463221000;22739
2019-07-22T00:00:00.0000000Z;2019-07-23T00:00:00.0000000Z;2019-07-22T00:00:00.1630000Z;2019-07-22T23:59:50.7270000Z;10598.280000000;10691.590000000;10052.580000000;10322.060000000;1544.629021000;25812
2019-07-23T00:00:00.0000000Z;2019-07-24T00:00:00.0000000Z;2019-07-23T00:00:03.4300000Z;2019-07-23T23:59:50.7140000Z;10326.370000000;10328.060000000;9812.000000000;9846.560000000;1569.426112000;25343
2019-07-24T00:00:00.0000000Z;2019-07-25T00:00:00.0000000Z;2019-07-24T00:00:03.0130000Z;2019-07-24T23:59:42.3470000Z;9848.990000000;9923.210000000;9513.000000000;9767.510000000;1603.044624000;24900
2019-07-25T00:00:00.0000000Z;2019-07-26T00:00:00.0000000Z;2019-07-25T00:00:00.2700000Z;2019-07-25T23:58:58.8400000Z;9766.990000000;10193.230000000;9732.510000000;9872.840000000;1546.552817000;22466
2019-07-26T00:00:00.0000000Z;2019-07-27T00:00:00.0000000Z;2019-07-26T00:00:01.5550000Z;2019-07-26T23:59:42.6590000Z;9887.240000000;9912.780000000;9643.000000000;9835.610000000;1257.212250000;20222
2019-07-27T00:00:00.0000000Z;2019-07-28T00:00:00.0000000Z;2019-07-27T00:00:03.1870000Z;2019-07-27T23:59:58.6740000Z;9833.440000000;10226.040000000;9300.000000000;9469.940000000;2207.718360000;33700
2019-07-28T00:00:00.0000000Z;2019-07-29T00:00:00.0000000Z;2019-07-28T00:00:01.5440000Z;2019-07-28T23:59:59.7720000Z;9471.700000000;9597.470000000;9120.000000000;9534.990000000;1157.733064000;19058
2019-07-29T00:00:00.0000000Z;2019-07-30T00:00:00.0000000Z;2019-07-29T00:00:00.0870000Z;2019-07-29T23:59:50.4520000Z;9527.010000000;9725.000000000;9356.280000000;9492.320000000;1232.875092000;25160
2019-07-30T00:00:00.0000000Z;2019-07-31T00:00:00.0000000Z;2019-07-30T00:00:00.0650000Z;2019-07-30T23:59:08.7570000Z;9496.420000000;9750.000000000;9390.000000000;9588.630000000;1399.478597000;19463
2019-07-31T00:00:00.0000000Z;2019-08-01T00:00:00.0000000Z;2019-07-31T00:00:10.1850000Z;2019-07-31T23:59:58.7860000Z;9588.630000000;10120.160000000;9568.000000000;10100.840000000;1654.366829000;22727
2019-08-01T00:00:00.0000000Z;2019-08-02T00:00:00.0000000Z;2019-08-01T00:00:06.1380000Z;2019-08-01T23:59:48.4570000Z;10100.840000000;10488.880000000;9880.940000000;10399.720000000;2064.515418000;26129
2019-08-02T00:00:00.0000000Z;2019-08-03T00:00:00.0000000Z;2019-08-02T00:00:05.3740000Z;2019-08-02T23:59:40.0640000Z;10401.250000000;10669.180000000;10323.130000000;10516.830000000;2500.944903000;32789
2019-08-03T00:00:00.0000000Z;2019-08-04T00:00:00.0000000Z;2019-08-03T00:00:01.8420000Z;2019-08-03T23:59:39.2900000Z;10515.120000000;10923.210000000;10497.360000000;10827.270000000;1909.932054000;23051
2019-08-04T00:00:00.0000000Z;2019-08-05T00:00:00.0000000Z;2019-08-04T00:00:00.7430000Z;2019-08-04T23:59:58.6310000Z;10822.710000000;11077.000000000;10562.260000000;10974.150000000;2018.067430000;24480
2019-08-05T00:00:00.0000000Z;2019-08-06T00:00:00.0000000Z;2019-08-05T00:00:00.8410000Z;2019-08-05T23:59:59.5070000Z;10975.440000000;11963.960000000;10971.670000000;11818.470000000;3548.546098000;46832
2019-08-06T00:00:00.0000000Z;2019-08-07T00:00:00.0000000Z;2019-08-06T00:00:04.5270000Z;2019-08-06T23:59:53.5530000Z;11815.780000000;12315.550000000;11220.000000000;11465.000000000;4364.947535000;47742
2019-08-07T00:00:00.0000000Z;2019-08-08T00:00:00.0000000Z;2019-08-07T00:00:00.6370000Z;2019-08-07T23:59:59.1740000Z;11458.290000000;12156.860000000;11372.100000000;11970.480000000;3962.454323000;38674
2019-08-08T00:00:00.0000000Z;2019-08-09T00:00:00.0000000Z;2019-08-08T00:00:01.6310000Z;2019-08-08T23:59:59.7440000Z;11977.410000000;12080.640000000;11460.170000000;11987.430000000;2474.470637000;28446
2019-08-09T00:00:00.0000000Z;2019-08-10T00:00:00.0000000Z;2019-08-09T00:00:03.7940000Z;2019-08-09T23:58:46.4500000Z;11990.600000000;12034.370000000;11642.130000000;11852.290000000;1492.665841000;24953
2019-08-10T00:00:00.0000000Z;2019-08-11T00:00:00.0000000Z;2019-08-10T00:00:02.4410000Z;2019-08-10T23:59:50.4240000Z;11859.490000000;11970.000000000;11175.000000000;11283.470000000;2795.542532000;36157
2019-08-11T00:00:00.0000000Z;2019-08-12T00:00:00.0000000Z;2019-08-11T00:00:02.9390000Z;2019-08-11T23:59:59.2960000Z;11276.290000000;11588.840000000;11066.190000000;11539.400000000;1681.423725000;18282
2019-08-12T00:00:00.0000000Z;2019-08-13T00:00:00.0000000Z;2019-08-12T00:00:00.2530000Z;2019-08-12T23:59:45.8250000Z;11539.400000000;11550.780000000;11219.000000000;11380.670000000;1300.590782000;18107
2019-08-13T00:00:00.0000000Z;2019-08-14T00:00:00.0000000Z;2019-08-13T00:00:31.2980000Z;2019-08-13T23:59:49.7880000Z;11378.330000000;11448.730000000;10732.910000000;10862.050000000;1751.350039000;22187
2019-08-14T00:00:00.0000000Z;2019-08-15T00:00:00.0000000Z;2019-08-14T00:00:12.4060000Z;2019-08-14T23:59:53.4920000Z;10857.730000000;10863.910000000;9900.000000000;10026.170000000;4272.989375000;46997
2019-08-15T00:00:00.0000000Z;2019-08-16T00:00:00.0000000Z;2019-08-15T00:00:01.9020000Z;2019-08-15T23:59:58.9480000Z;10026.200000000;10441.660000000;9883.900000000;10287.470000000;3738.544119000;36276
2019-08-16T00:00:00.0000000Z;2019-08-17T00:00:00.0000000Z;2019-08-16T00:00:01.0370000Z;2019-08-16T23:59:52.4970000Z;10287.470000000;10540.900000000;9730.600000000;10341.930000000;3397.895333000;44551
2019-08-17T00:00:00.0000000Z;2019-08-18T00:00:00.0000000Z;2019-08-17T00:00:05.1410000Z;2019-08-17T23:58:10.6580000Z;10340.420000000;10475.510000000;9964.960000000;10212.830000000;1988.075798000;27119
2019-08-18T00:00:00.0000000Z;2019-08-19T00:00:00.0000000Z;2019-08-18T00:00:02.1340000Z;2019-08-18T23:59:45.0990000Z;10207.440000000;10513.340000000;10060.790000000;10316.560000000;1340.961450000;18915
2019-08-19T00:00:00.0000000Z;2019-08-20T00:00:00.0000000Z;2019-08-19T00:00:08.4400000Z;2019-08-19T23:59:53.6040000Z;10314.100000000;10939.650000000;10264.270000000;10921.360000000;2501.219335000;24126
2019-08-20T00:00:00.0000000Z;2019-08-21T00:00:00.0000000Z;2019-08-20T00:00:00.8520000Z;2019-08-20T23:59:57.4190000Z;10928.720000000;10952.100000000;10553.100000000;10766.930000000;1902.261700000;19431
2019-08-21T00:00:00.0000000Z;2019-08-22T00:00:00.0000000Z;2019-08-21T00:00:02.2380000Z;2019-08-21T23:59:45.6030000Z;10756.070000000;10801.000000000;9833.180000000;10126.200000000;3826.927484000;32068
2019-08-22T00:00:00.0000000Z;2019-08-23T00:00:00.0000000Z;2019-08-22T00:00:00.6610000Z;2019-08-22T23:59:59.9140000Z;10130.640000000;10230.000000000;9751.700000000;10109.570000000;2280.598207000;27376
2019-08-23T00:00:00.0000000Z;2019-08-24T00:00:00.0000000Z;2019-08-23T00:00:00.1840000Z;2019-08-23T23:58:24.4780000Z;10109.570000000;10460.000000000;10025.420000000;10398.020000000;1655.265003000;17781
2019-08-24T00:00:00.0000000Z;2019-08-25T00:00:00.0000000Z;2019-08-24T00:00:03.7520000Z;2019-08-24T23:58:57.0270000Z;10408.340000000;10427.460000000;9870.940000000;10144.460000000;2093.024875000;18821
2019-08-25T00:00:00.0000000Z;2019-08-26T00:00:00.0000000Z;2019-08-25T00:00:06.9010000Z;2019-08-25T23:59:59.5870000Z;10141.500000000;10350.010000000;9897.760000000;10136.390000000;1614.432580000;17638
2019-08-26T00:00:00.0000000Z;2019-08-27T00:00:00.0000000Z;2019-08-26T00:00:00.3730000Z;2019-08-26T23:59:24.9690000Z;10135.110000000;10638.850000000;10135.110000000;10349.990000000;2093.479753000;23520
2019-08-27T00:00:00.0000000Z;2019-08-28T00:00:00.0000000Z;2019-08-27T00:00:00.1020000Z;2019-08-27T23:59:44.3870000Z;10357.140000000;10371.200000000;9988.000000000;10171.960000000;2054.553894000;15673
2019-08-28T00:00:00.0000000Z;2019-08-29T00:00:00.0000000Z;2019-08-28T00:00:01.8920000Z;2019-08-28T23:59:41.9060000Z;10168.450000000;10274.900000000;9511.030000000;9717.190000000;3520.718509000;23917
2019-08-29T00:00:00.0000000Z;2019-08-30T00:00:00.0000000Z;2019-08-29T00:00:07.1190000Z;2019-08-29T23:59:55.0700000Z;9721.190000000;9721.190000000;9315.070000000;9492.700000000;2075.032638000;16523
2019-08-30T00:00:00.0000000Z;2019-08-31T00:00:00.0000000Z;2019-08-30T00:00:12.2890000Z;2019-08-30T23:59:29.1110000Z;9485.090000000;9704.780000000;9341.400000000;9589.210000000;1459.729926000;13279
2019-08-31T00:00:00.0000000Z;2019-09-01T00:00:00.0000000Z;2019-08-31T00:00:05.3810000Z;2019-08-31T23:59:38.1840000Z;9589.210000000;9692.000000000;9430.000000000;9591.860000000;800.924814000;11652
2019-09-01T00:00:00.0000000Z;2019-09-02T00:00:00.0000000Z;2019-09-01T00:00:00.2420000Z;2019-09-01T23:59:42.4170000Z;9591.850000000;9842.230000000;9534.310000000;9758.570000000;753.420325000;10578
2019-09-02T00:00:00.0000000Z;2019-09-03T00:00:00.0000000Z;2019-09-02T00:00:11.4670000Z;2019-09-02T23:59:57.0320000Z;9749.360000000;10474.000000000;9741.460000000;10371.900000000;2637.426548000;25004
2019-09-03T00:00:00.0000000Z;2019-09-04T00:00:00.0000000Z;2019-09-03T00:00:06.0400000Z;2019-09-03T23:59:55.9420000Z;10372.390000000;10781.340000000;10277.480000000;10629.030000000;2517.238882000;25478
2019-09-04T00:00:00.0000000Z;2019-09-05T00:00:00.0000000Z;2019-09-04T00:00:03.1180000Z;2019-09-04T23:59:23.5780000Z;10631.980000000;10821.720000000;10365.630000000;10580.200000000;2196.511602000;18614
2019-09-05T00:00:00.0000000Z;2019-09-06T00:00:00.0000000Z;2019-09-05T00:00:05.8930000Z;2019-09-05T23:56:31.1030000Z;10575.970000000;10668.930000000;10450.000000000;10581.500000000;1173.651761000;12253
2019-09-06T00:00:00.0000000Z;2019-09-07T00:00:00.0000000Z;2019-09-06T00:00:10.9050000Z;2019-09-06T23:59:53.0750000Z;10581.350000000;10923.000000000;10175.000000000;10311.780000000;3121.567044000;22871
2019-09-07T00:00:00.0000000Z;2019-09-08T00:00:00.0000000Z;2019-09-07T00:00:04.8120000Z;2019-09-07T23:59:49.1600000Z;10307.680000000;10577.560000000;10303.560000000;10483.360000000;1209.222594000;10279
2019-09-08T00:00:00.0000000Z;2019-09-09T00:00:00.0000000Z;2019-09-08T00:00:03.0000000Z;2019-09-08T23:59:58.3160000Z;10490.250000000;10599.990000000;10228.900000000;10398.270000000;918.063924000;10688
2019-09-09T00:00:00.0000000Z;2019-09-10T00:00:00.0000000Z;2019-09-09T00:00:15.5600000Z;2019-09-09T23:58:11.7100000Z;10402.800000000;10538.910000000;10058.000000000;10319.580000000;2287.778900000;17756
2019-09-10T00:00:00.0000000Z;2019-09-11T00:00:00.0000000Z;2019-09-10T00:00:02.8800000Z;2019-09-10T23:59:54.5770000Z;10312.370000000;10388.860000000;9913.030000000;10094.290000000;1834.171840000;15582
2019-09-11T00:00:00.0000000Z;2019-09-12T00:00:00.0000000Z;2019-09-11T00:00:02.1930000Z;2019-09-11T23:59:36.6320000Z;10099.480000000;10280.000000000;9857.000000000;10165.230000000;1727.879160000;19079
2019-09-12T00:00:00.0000000Z;2019-09-13T00:00:00.0000000Z;2019-09-12T00:00:10.3710000Z;2019-09-12T23:59:01.4650000Z;10158.190000000;10460.000000000;10034.480000000;10425.000000000;1805.823144000;18052
2019-09-13T00:00:00.0000000Z;2019-09-14T00:00:00.0000000Z;2019-09-13T00:00:03.6100000Z;2019-09-13T23:59:55.7760000Z;10429.740000000;10459.750000000;10152.190000000;10365.490000000;1600.811848000;18157
2019-09-14T00:00:00.0000000Z;2019-09-15T00:00:00.0000000Z;2019-09-14T00:00:02.5080000Z;2019-09-14T23:59:35.8490000Z;10368.640000000;10445.210000000;10222.220000000;10355.980000000;955.083806000;12535
2019-09-15T00:00:00.0000000Z;2019-09-16T00:00:00.0000000Z;2019-09-15T00:00:02.3450000Z;2019-09-15T23:59:55.1110000Z;10360.110000000;10385.400000000;10258.290000000;10314.990000000;744.969661000;8616
2019-09-16T00:00:00.0000000Z;2019-09-17T00:00:00.0000000Z;2019-09-16T00:00:00.1750000Z;2019-09-16T23:59:46.3750000Z;10314.990000000;10379.140000000;10074.090000000;10265.150000000;1608.796806000;15373
2019-09-17T00:00:00.0000000Z;2019-09-18T00:00:00.0000000Z;2019-09-17T00:00:07.5760000Z;2019-09-17T23:59:48.1390000Z;10264.900000000;10278.440000000;10132.500000000;10191.830000000;1463.226646000;23550
2019-09-18T00:00:00.0000000Z;2019-09-19T00:00:00.0000000Z;2019-09-18T00:00:02.1960000Z;2019-09-18T23:59:13.4830000Z;10191.830000000;10262.990000000;10078.520000000;10158.380000000;1554.747755000;24521
2019-09-19T00:00:00.0000000Z;2019-09-20T00:00:00.0000000Z;2019-09-19T00:00:29.1870000Z;2019-09-19T23:59:57.1250000Z;10154.840000000;10382.750000000;9600.000000000;10268.500000000;3768.564770000;40103
2019-09-20T00:00:00.0000000Z;2019-09-21T00:00:00.0000000Z;2019-09-20T00:00:03.7570000Z;2019-09-20T23:58:06.6750000Z;10271.400000000;10311.200000000;10057.230000000;10161.410000000;1158.025688000;17694
2019-09-21T00:00:00.0000000Z;2019-09-22T00:00:00.0000000Z;2019-09-21T00:00:19.8080000Z;2019-09-21T23:57:48.2590000Z;10162.860000000;10175.760000000;9903.350000000;9975.520000000;955.946246000;14985
2019-09-22T00:00:00.0000000Z;2019-09-23T00:00:00.0000000Z;2019-09-22T00:00:03.1530000Z;2019-09-22T23:59:59.4630000Z;9973.390000000;10095.630000000;9845.830000000;10025.820000000;1348.197994000;19005
2019-09-23T00:00:00.0000000Z;2019-09-24T00:00:00.0000000Z;2019-09-23T00:00:17.7330000Z;2019-09-23T23:59:36.5340000Z;10025.310000000;10050.400000000;9602.000000000;9691.330000000;1801.988078000;23868
2019-09-24T00:00:00.0000000Z;2019-09-25T00:00:00.0000000Z;2019-09-24T00:00:10.0670000Z;2019-09-24T23:59:44.1910000Z;9687.890000000;9778.470000000;7853.680000000;8535.520000000;8181.227269000;67258
2019-09-25T00:00:00.0000000Z;2019-09-26T00:00:00.0000000Z;2019-09-25T00:00:00.0490000Z;2019-09-25T23:59:40.2080000Z;8527.530000000;8746.680000000;8215.980000000;8430.680000000;5073.192477000;43182
2019-09-26T00:00:00.0000000Z;2019-09-27T00:00:00.0000000Z;2019-09-26T00:00:13.8270000Z;2019-09-26T23:59:41.4370000Z;8436.660000000;8470.440000000;7725.000000000;8060.560000000;5021.616152000;39857
2019-09-27T00:00:00.0000000Z;2019-09-28T00:00:00.0000000Z;2019-09-27T00:00:03.1270000Z;2019-09-27T23:59:03.7860000Z;8060.810000000;8279.490000000;7857.530000000;8192.190000000;2134.239287000;21501
2019-09-28T00:00:00.0000000Z;2019-09-29T00:00:00.0000000Z;2019-09-28T00:00:08.0200000Z;2019-09-28T23:59:32.0270000Z;8192.190000000;8342.660000000;8002.550000000;8216.340000000;1889.255363000;18394
2019-09-29T00:00:00.0000000Z;2019-09-30T00:00:00.0000000Z;2019-09-29T00:00:05.7880000Z;2019-09-29T23:59:53.0360000Z;8216.470000000;8239.080000000;7883.920000000;8056.340000000;1411.439768000;18006
2019-09-30T00:00:00.0000000Z;2019-10-01T00:00:00.0000000Z;2019-09-30T00:00:10.9150000Z;2019-09-30T23:59:51.8700000Z;8053.960000000;8366.130000000;7701.060000000;8303.860000000;3159.980528000;26350
2019-10-01T00:00:00.0000000Z;2019-10-02T00:00:00.0000000Z;2019-10-01T00:00:00.1300000Z;2019-10-01T23:59:54.6230000Z;8306.570000000;8520.740000000;8196.210000000;8313.520000000;2361.566888000;22292
2019-10-02T00:00:00.0000000Z;2019-10-03T00:00:00.0000000Z;2019-10-02T00:00:29.0270000Z;2019-10-02T23:59:59.3230000Z;8320.530000000;8394.030000000;8166.510000000;8384.990000000;1391.996882000;15818
2019-10-03T00:00:00.0000000Z;2019-10-04T00:00:00.0000000Z;2019-10-03T00:00:01.5500000Z;2019-10-03T23:59:21.2810000Z;8381.100000000;8421.000000000;8055.000000000;8234.590000000;1797.621209000;24974
2019-10-04T00:00:00.0000000Z;2019-10-05T00:00:00.0000000Z;2019-10-04T00:00:12.5000000Z;2019-10-04T23:59:17.4380000Z;8238.200000000;8241.730000000;8005.360000000;8152.290000000;1216.307299000;13366
2019-10-05T00:00:00.0000000Z;2019-10-06T00:00:00.0000000Z;2019-10-05T00:00:13.8610000Z;2019-10-05T23:55:13.4750000Z;8150.200000000;8197.450000000;8019.350000000;8139.920000000;1067.930473000;12768
2019-10-06T00:00:00.0000000Z;2019-10-07T00:00:00.0000000Z;2019-10-06T00:00:07.4290000Z;2019-10-06T23:59:53.6760000Z;8143.610000000;8171.250000000;7777.000000000;7861.420000000;2323.912116000;22973
2019-10-07T00:00:00.0000000Z;2019-10-08T00:00:00.0000000Z;2019-10-07T00:00:03.0050000Z;2019-10-07T23:59:51.8970000Z;7860.610000000;8319.130000000;7761.210000000;8206.010000000;2486.286413000;24581
2019-10-08T00:00:00.0000000Z;2019-10-09T00:00:00.0000000Z;2019-10-08T00:00:05.5290000Z;2019-10-08T23:59:58.1840000Z;8206.040000000;8344.000000000;8105.000000000;8177.210000000;1334.487558000;15936
2019-10-09T00:00:00.0000000Z;2019-10-10T00:00:00.0000000Z;2019-10-09T00:00:14.5430000Z;2019-10-09T23:59:13.6920000Z;8181.480000000;8693.980000000;8115.760000000;8584.110000000;2361.489646000;25934
2019-10-10T00:00:00.0000000Z;2019-10-11T00:00:00.0000000Z;2019-10-10T00:00:06.5170000Z;2019-10-10T23:59:26.5510000Z;8581.630000000;8660.000000000;8450.000000000;8583.150000000;2181.677404000;22366
2019-10-11T00:00:00.0000000Z;2019-10-12T00:00:00.0000000Z;2019-10-11T00:00:05.4500000Z;2019-10-11T11:51:53.7280000Z;8586.410000000;8812.680000000;8260.000000000;8318.000000000;1630.027408000;16214
