time_period_start;time_period_end;time_open;time_close;price_open;price_high;price_low;price_close;volume_traded;trades_count
2018-12-15T00:00:00.0000000Z;2018-12-16T00:00:00.0000000Z;2018-12-15T03:07:37.8690000Z;2018-12-15T23:55:11.6090000Z;1.000000000;1.000000000;0.090750000;0.093380000;10078940.500000000;780
2018-12-16T00:00:00.0000000Z;2018-12-17T00:00:00.0000000Z;2018-12-16T00:00:36.0350000Z;2018-12-16T23:54:31.4120000Z;0.093690000;0.101940000;0.093270000;0.095140000;3915915.100000000;623
2018-12-17T00:00:00.0000000Z;2018-12-18T00:00:00.0000000Z;2018-12-17T00:13:53.3000000Z;2018-12-17T23:57:49.1730000Z;0.094820000;0.111870000;0.094290000;0.108360000;2845655.200000000;974
2018-12-18T00:00:00.0000000Z;2018-12-19T00:00:00.0000000Z;2018-12-18T00:08:51.3130000Z;2018-12-18T23:55:49.3520000Z;0.109030000;0.113810000;0.104070000;0.113700000;1997828.600000000;732
2018-12-19T00:00:00.0000000Z;2018-12-20T00:00:00.0000000Z;2018-12-19T00:04:02.8670000Z;2018-12-19T23:55:27.0390000Z;0.115010000;0.126410000;0.111620000;0.112420000;5076159.300000000;1691
2018-12-20T00:00:00.0000000Z;2018-12-21T00:00:00.0000000Z;2018-12-20T00:00:41.1280000Z;2018-12-20T23:59:12.1010000Z;0.112100000;0.126650000;0.111450000;0.125010000;8515492.100000000;2161
2018-12-21T00:00:00.0000000Z;2018-12-22T00:00:00.0000000Z;2018-12-21T00:00:34.0580000Z;2018-12-21T23:54:11.2100000Z;0.124740000;0.133510000;0.106400000;0.118640000;9775720.100000000;3110
2018-12-22T00:00:00.0000000Z;2018-12-23T00:00:00.0000000Z;2018-12-22T00:02:14.0570000Z;2018-12-22T23:59:15.5250000Z;0.119010000;0.121790000;0.115000000;0.120770000;3861565.000000000;1297
2018-12-23T00:00:00.0000000Z;2018-12-24T00:00:00.0000000Z;2018-12-23T00:02:19.6100000Z;2018-12-23T23:57:55.6300000Z;0.121230000;0.128300000;0.119740000;0.125360000;4564724.600000000;1472
2018-12-24T00:00:00.0000000Z;2018-12-25T00:00:00.0000000Z;2018-12-24T00:02:57.5680000Z;2018-12-24T23:56:20.4890000Z;0.125030000;0.142800000;0.125030000;0.130850000;10433304.300000000;3169
2018-12-25T00:00:00.0000000Z;2018-12-26T00:00:00.0000000Z;2018-12-25T00:01:03.8530000Z;2018-12-25T23:41:51.3450000Z;0.131760000;0.131980000;0.115430000;0.119220000;2491168.100000000;1221
2018-12-26T00:00:00.0000000Z;2018-12-27T00:00:00.0000000Z;2018-12-26T00:00:12.4300000Z;2018-12-26T23:59:27.7370000Z;0.119890000;0.124110000;0.113520000;0.119300000;3675901.200000000;1373
2018-12-27T00:00:00.0000000Z;2018-12-28T00:00:00.0000000Z;2018-12-27T00:02:51.0940000Z;2018-12-27T23:50:09.1930000Z;0.118700000;0.119520000;0.106970000;0.108000000;3677273.900000000;1118
2018-12-28T00:00:00.0000000Z;2018-12-29T00:00:00.0000000Z;2018-12-28T00:00:12.7270000Z;2018-12-28T23:56:59.7690000Z;0.107890000;0.122430000;0.107470000;0.119960000;5319582.600000000;1279
2018-12-29T00:00:00.0000000Z;2018-12-30T00:00:00.0000000Z;2018-12-29T00:01:55.9900000Z;2018-12-29T23:57:56.4730000Z;0.120850000;0.121720000;0.115600000;0.115890000;2009352.900000000;754
2018-12-30T00:00:00.0000000Z;2018-12-31T00:00:00.0000000Z;2018-12-30T00:00:43.0750000Z;2018-12-30T23:58:01.5490000Z;0.115630000;0.118330000;0.113350000;0.116010000;2102082.900000000;662
2018-12-31T00:00:00.0000000Z;2019-01-01T00:00:00.0000000Z;2018-12-31T00:00:34.8490000Z;2018-12-31T23:52:22.7760000Z;0.116450000;0.117270000;0.108910000;0.109440000;6542486.800000000;1331
2019-01-01T00:00:00.0000000Z;2019-01-02T00:00:00.0000000Z;2019-01-01T00:09:32.1420000Z;2019-01-01T23:57:01.8120000Z;0.109430000;0.114410000;0.108390000;0.114410000;2545690.100000000;864
2019-01-02T00:00:00.0000000Z;2019-01-03T00:00:00.0000000Z;2019-01-02T00:00:18.8620000Z;2019-01-02T23:55:29.3840000Z;0.114450000;0.118570000;0.112350000;0.117900000;4295934.800000000;1270
2019-01-03T00:00:00.0000000Z;2019-01-04T00:00:00.0000000Z;2019-01-03T00:04:38.0250000Z;2019-01-03T23:54:45.3630000Z;0.117510000;0.117520000;0.111340000;0.112040000;2394208.400000000;956
2019-01-04T00:00:00.0000000Z;2019-01-05T00:00:00.0000000Z;2019-01-04T00:01:13.4550000Z;2019-01-04T23:51:58.8790000Z;0.111610000;0.114230000;0.110730000;0.113840000;3705954.800000000;1000
2019-01-05T00:00:00.0000000Z;2019-01-06T00:00:00.0000000Z;2019-01-05T00:13:24.9780000Z;2019-01-05T23:57:03.3910000Z;0.114060000;0.114690000;0.112030000;0.112050000;2772705.400000000;1130
2019-01-06T00:00:00.0000000Z;2019-01-07T00:00:00.0000000Z;2019-01-06T00:03:26.5830000Z;2019-01-06T23:52:40.0080000Z;0.112350000;0.121550000;0.111430000;0.120510000;4063046.200000000;1597
2019-01-07T00:00:00.0000000Z;2019-01-08T00:00:00.0000000Z;2019-01-07T00:00:09.5550000Z;2019-01-07T23:57:12.9110000Z;0.120330000;0.125100000;0.119700000;0.123200000;3290584.600000000;1428
2019-01-08T00:00:00.0000000Z;2019-01-09T00:00:00.0000000Z;2019-01-08T00:07:24.0290000Z;2019-01-08T23:59:15.1470000Z;0.123330000;0.125790000;0.119200000;0.122580000;6165580.200000000;1384
2019-01-09T00:00:00.0000000Z;2019-01-10T00:00:00.0000000Z;2019-01-09T00:00:01.0810000Z;2019-01-09T23:55:36.7670000Z;0.122580000;0.124000000;0.121000000;0.123300000;2680889.900000000;935
2019-01-10T00:00:00.0000000Z;2019-01-11T00:00:00.0000000Z;2019-01-10T00:06:35.2730000Z;2019-01-10T23:56:16.3030000Z;0.123410000;0.128770000;0.102490000;0.107110000;10199974.500000000;2884
2019-01-11T00:00:00.0000000Z;2019-01-12T00:00:00.0000000Z;2019-01-11T00:01:39.6790000Z;2019-01-11T23:58:45.9150000Z;0.106910000;0.108130000;0.103410000;0.104600000;4414540.700000000;1413
2019-01-12T00:00:00.0000000Z;2019-01-13T00:00:00.0000000Z;2019-01-12T00:02:43.6580000Z;2019-01-12T23:58:22.6590000Z;0.104550000;0.105810000;0.103980000;0.105500000;4686141.600000000;1419
2019-01-13T00:00:00.0000000Z;2019-01-14T00:00:00.0000000Z;2019-01-13T00:01:04.5670000Z;2019-01-13T23:58:38.5510000Z;0.105410000;0.112000000;0.100350000;0.102200000;7725376.200000000;2502
2019-01-14T00:00:00.0000000Z;2019-01-15T00:00:00.0000000Z;2019-01-14T00:00:04.6860000Z;2019-01-14T23:56:10.6290000Z;0.102110000;0.110190000;0.102110000;0.108560000;4918852.200000000;1221
2019-01-15T00:00:00.0000000Z;2019-01-16T00:00:00.0000000Z;2019-01-15T00:00:10.5120000Z;2019-01-15T23:57:32.5600000Z;0.108370000;0.109170000;0.103260000;0.104750000;2139253.000000000;725
2019-01-16T00:00:00.0000000Z;2019-01-17T00:00:00.0000000Z;2019-01-16T00:02:36.7370000Z;2019-01-16T23:50:51.9110000Z;0.104560000;0.108030000;0.104230000;0.106150000;1749771.100000000;581
2019-01-17T00:00:00.0000000Z;2019-01-18T00:00:00.0000000Z;2019-01-17T00:00:14.6840000Z;2019-01-17T23:40:42.4360000Z;0.106170000;0.109190000;0.103180000;0.107820000;2988234.500000000;733
2019-01-18T00:00:00.0000000Z;2019-01-19T00:00:00.0000000Z;2019-01-18T00:01:53.1550000Z;2019-01-18T23:57:33.1510000Z;0.108040000;0.108040000;0.104910000;0.105780000;1705734.300000000;661
2019-01-19T00:00:00.0000000Z;2019-01-20T00:00:00.0000000Z;2019-01-19T00:00:11.1900000Z;2019-01-19T23:58:15.6390000Z;0.105850000;0.114000000;0.105050000;0.107150000;6560502.000000000;1721
2019-01-20T00:00:00.0000000Z;2019-01-21T00:00:00.0000000Z;2019-01-20T00:03:02.3540000Z;2019-01-20T23:49:40.7830000Z;0.106780000;0.107980000;0.101010000;0.102740000;2861429.900000000;770
2019-01-21T00:00:00.0000000Z;2019-01-22T00:00:00.0000000Z;2019-01-21T00:12:20.0880000Z;2019-01-21T23:49:00.0640000Z;0.103150000;0.103280000;0.098100000;0.101400000;2222637.200000000;709
2019-01-22T00:00:00.0000000Z;2019-01-23T00:00:00.0000000Z;2019-01-22T00:10:10.4720000Z;2019-01-22T23:58:44.2100000Z;0.101740000;0.103190000;0.098530000;0.102240000;3792556.100000000;934
2019-01-23T00:00:00.0000000Z;2019-01-24T00:00:00.0000000Z;2019-01-23T00:01:30.4520000Z;2019-01-23T23:58:23.9220000Z;0.102130000;0.102940000;0.098820000;0.100660000;2909832.400000000;948
2019-01-24T00:00:00.0000000Z;2019-01-25T00:00:00.0000000Z;2019-01-24T00:00:46.2020000Z;2019-01-24T23:59:00.7910000Z;0.100630000;0.101480000;0.099460000;0.101050000;4712457.200000000;1326
2019-01-25T00:00:00.0000000Z;2019-01-26T00:00:00.0000000Z;2019-01-25T00:00:05.5940000Z;2019-01-25T23:41:15.2310000Z;0.100960000;0.100960000;0.098120000;0.099340000;2815389.400000000;874
2019-01-26T00:00:00.0000000Z;2019-01-27T00:00:00.0000000Z;2019-01-26T00:05:29.8700000Z;2019-01-26T23:47:47.6210000Z;0.099370000;0.103770000;0.096470000;0.097930000;4818584.700000000;1613
2019-01-27T00:00:00.0000000Z;2019-01-28T00:00:00.0000000Z;2019-01-27T00:01:05.7510000Z;2019-01-27T23:58:38.7190000Z;0.097780000;0.097800000;0.092000000;0.093800000;2851414.700000000;1220
2019-01-28T00:00:00.0000000Z;2019-01-29T00:00:00.0000000Z;2019-01-28T00:03:53.8750000Z;2019-01-28T23:59:30.2790000Z;0.093800000;0.093940000;0.083000000;0.085640000;4087622.100000000;1434
2019-01-29T00:00:00.0000000Z;2019-01-30T00:00:00.0000000Z;2019-01-29T00:00:43.6540000Z;2019-01-29T23:38:24.4700000Z;0.085640000;0.086420000;0.080230000;0.082200000;4502130.800000000;1286
2019-01-30T00:00:00.0000000Z;2019-01-31T00:00:00.0000000Z;2019-01-30T00:15:47.0620000Z;2019-01-30T23:57:56.4060000Z;0.081250000;0.087560000;0.080500000;0.084520000;6672284.900000000;1509
2019-01-31T00:00:00.0000000Z;2019-02-01T00:00:00.0000000Z;2019-01-31T00:00:19.7350000Z;2019-01-31T23:52:06.0060000Z;0.084610000;0.087180000;0.080310000;0.080620000;6922212.700000000;1434
2019-02-01T00:00:00.0000000Z;2019-02-02T00:00:00.0000000Z;2019-02-01T00:00:04.6510000Z;2019-02-01T23:59:36.1320000Z;0.080720000;0.083000000;0.076510000;0.080190000;5522158.200000000;1088
2019-02-02T00:00:00.0000000Z;2019-02-03T00:00:00.0000000Z;2019-02-02T00:00:16.6340000Z;2019-02-02T23:55:07.1560000Z;0.080100000;0.082750000;0.079800000;0.082140000;2127701.200000000;509
2019-02-03T00:00:00.0000000Z;2019-02-04T00:00:00.0000000Z;2019-02-03T00:21:02.7240000Z;2019-02-03T23:57:20.9340000Z;0.082000000;0.082000000;0.077320000;0.079160000;1885637.900000000;712
2019-02-04T00:00:00.0000000Z;2019-02-05T00:00:00.0000000Z;2019-02-04T00:01:32.9940000Z;2019-02-04T23:56:55.4730000Z;0.078990000;0.079850000;0.077500000;0.077500000;2986154.900000000;658
2019-02-05T00:00:00.0000000Z;2019-02-06T00:00:00.0000000Z;2019-02-05T00:00:31.6660000Z;2019-02-05T23:56:37.4200000Z;0.077500000;0.077590000;0.074600000;0.075970000;2008185.100000000;560
2019-02-06T00:00:00.0000000Z;2019-02-07T00:00:00.0000000Z;2019-02-06T00:01:18.4400000Z;2019-02-06T23:57:57.7550000Z;0.076530000;0.076530000;0.071450000;0.073100000;2982852.900000000;909
2019-02-07T00:00:00.0000000Z;2019-02-08T00:00:00.0000000Z;2019-02-07T00:05:47.7420000Z;2019-02-07T23:53:20.2500000Z;0.073250000;0.076340000;0.072220000;0.073260000;3432228.200000000;868
2019-02-08T00:00:00.0000000Z;2019-02-09T00:00:00.0000000Z;2019-02-08T00:23:14.0260000Z;2019-02-08T23:49:31.3260000Z;0.073300000;0.082710000;0.072190000;0.080490000;9589783.400000000;1853
2019-02-09T00:00:00.0000000Z;2019-02-10T00:00:00.0000000Z;2019-02-09T00:01:12.0840000Z;2019-02-09T23:56:48.7510000Z;0.080330000;0.081130000;0.075000000;0.079870000;8789946.900000000;1854
2019-02-10T00:00:00.0000000Z;2019-02-11T00:00:00.0000000Z;2019-02-10T00:03:05.7580000Z;2019-02-10T23:57:09.7170000Z;0.079870000;0.080760000;0.075070000;0.079220000;4936768.700000000;1419
2019-02-11T00:00:00.0000000Z;2019-02-12T00:00:00.0000000Z;2019-02-11T00:01:26.6110000Z;2019-02-11T23:04:46.8700000Z;0.079660000;0.079660000;0.075100000;0.076460000;3882604.500000000;1235
2019-02-12T00:00:00.0000000Z;2019-02-13T00:00:00.0000000Z;2019-02-12T00:01:06.1770000Z;2019-02-12T23:31:59.6270000Z;0.076150000;0.077040000;0.073980000;0.076000000;7179877.800000000;2291
2019-02-13T00:00:00.0000000Z;2019-02-14T00:00:00.0000000Z;2019-02-13T00:09:53.0070000Z;2019-02-13T23:56:41.9870000Z;0.076000000;0.077300000;0.074500000;0.075430000;2560780.300000000;807
2019-02-14T00:00:00.0000000Z;2019-02-15T00:00:00.0000000Z;2019-02-14T00:05:39.6710000Z;2019-02-14T23:59:44.9480000Z;0.075400000;0.075830000;0.073750000;0.075530000;17707471.200000000;2874
2019-02-15T00:00:00.0000000Z;2019-02-16T00:00:00.0000000Z;2019-02-15T00:00:06.9440000Z;2019-02-15T23:59:52.4490000Z;0.075490000;0.080730000;0.074910000;0.078210000;13822972.900000000;3088
2019-02-16T00:00:00.0000000Z;2019-02-17T00:00:00.0000000Z;2019-02-16T00:10:08.1370000Z;2019-02-16T23:50:09.7420000Z;0.078490000;0.078490000;0.076800000;0.077190000;1141978.500000000;330
2019-02-17T00:00:00.0000000Z;2019-02-18T00:00:00.0000000Z;2019-02-17T00:05:53.5480000Z;2019-02-17T23:52:21.4190000Z;0.076990000;0.079080000;0.076580000;0.078810000;511120.000000000;343
2019-02-18T00:00:00.0000000Z;2019-02-19T00:00:00.0000000Z;2019-02-18T00:02:30.4100000Z;2019-02-18T23:53:06.6580000Z;0.078750000;0.083100000;0.078450000;0.082750000;2758823.000000000;1024
2019-02-19T00:00:00.0000000Z;2019-02-20T00:00:00.0000000Z;2019-02-19T00:00:13.8500000Z;2019-02-19T23:59:44.1280000Z;0.083070000;0.092560000;0.082070000;0.089230000;3494949.900000000;1537
2019-02-20T00:00:00.0000000Z;2019-02-21T00:00:00.0000000Z;2019-02-20T00:02:11.0000000Z;2019-02-20T23:59:56.3340000Z;0.088810000;0.091490000;0.085320000;0.091330000;1576946.000000000;908
2019-02-21T00:00:00.0000000Z;2019-02-22T00:00:00.0000000Z;2019-02-21T00:00:00.0910000Z;2019-02-21T23:59:58.9030000Z;0.091330000;0.093450000;0.086240000;0.087760000;2352463.700000000;1067
2019-02-22T00:00:00.0000000Z;2019-02-23T00:00:00.0000000Z;2019-02-22T00:00:28.8390000Z;2019-02-22T23:59:50.7750000Z;0.087760000;0.091040000;0.087200000;0.090200000;837503.300000000;586
2019-02-23T00:00:00.0000000Z;2019-02-24T00:00:00.0000000Z;2019-02-23T00:02:08.6560000Z;2019-02-23T23:59:18.8130000Z;0.089720000;0.095910000;0.088460000;0.093210000;1580293.900000000;798
2019-02-24T00:00:00.0000000Z;2019-02-25T00:00:00.0000000Z;2019-02-24T00:04:27.7690000Z;2019-02-24T23:57:39.3300000Z;0.093890000;0.096920000;0.065410000;0.081340000;5313026.500000000;1904
2019-02-25T00:00:00.0000000Z;2019-02-26T00:00:00.0000000Z;2019-02-25T00:02:48.4680000Z;2019-02-25T23:59:25.9720000Z;0.081590000;0.088220000;0.081590000;0.085720000;7608636.700000000;1644
2019-02-26T00:00:00.0000000Z;2019-02-27T00:00:00.0000000Z;2019-02-26T00:08:20.7210000Z;2019-02-26T23:06:55.8620000Z;0.085570000;0.086500000;0.082760000;0.084030000;3893296.500000000;1041
2019-02-27T00:00:00.0000000Z;2019-02-28T00:00:00.0000000Z;2019-02-27T00:12:43.8590000Z;2019-02-27T23:49:31.6690000Z;0.083800000;0.085000000;0.080240000;0.083930000;613690.200000000;295
2019-02-28T00:00:00.0000000Z;2019-03-01T00:00:00.0000000Z;2019-02-28T00:04:57.2390000Z;2019-02-28T23:25:39.3550000Z;0.083580000;0.085000000;0.082070000;0.083790000;611425.000000000;338
2019-03-01T00:00:00.0000000Z;2019-03-02T00:00:00.0000000Z;2019-03-01T00:45:20.9000000Z;2019-03-01T23:57:14.7670000Z;0.083900000;0.085840000;0.083520000;0.084470000;614292.200000000;302
2019-03-02T00:00:00.0000000Z;2019-03-03T00:00:00.0000000Z;2019-03-02T00:00:42.3900000Z;2019-03-02T23:49:40.4190000Z;0.084390000;0.085270000;0.082400000;0.083290000;389195.500000000;237
2019-03-03T00:00:00.0000000Z;2019-03-04T00:00:00.0000000Z;2019-03-03T00:12:53.0400000Z;2019-03-03T23:59:09.2950000Z;0.083570000;0.089310000;0.082500000;0.087030000;3770321.400000000;1150
2019-03-04T00:00:00.0000000Z;2019-03-05T00:00:00.0000000Z;2019-03-04T00:01:11.0500000Z;2019-03-04T23:50:43.4240000Z;0.086910000;0.086910000;0.079320000;0.081750000;1989229.300000000;627
2019-03-05T00:00:00.0000000Z;2019-03-06T00:00:00.0000000Z;2019-03-05T00:25:09.0650000Z;2019-03-05T23:43:36.7820000Z;0.081500000;0.086000000;0.080450000;0.085100000;1583873.800000000;555
2019-03-06T00:00:00.0000000Z;2019-03-07T00:00:00.0000000Z;2019-03-06T00:07:59.2920000Z;2019-03-06T23:58:10.1000000Z;0.085540000;0.085540000;0.083420000;0.084280000;221933.400000000;166
2019-03-07T00:00:00.0000000Z;2019-03-08T00:00:00.0000000Z;2019-03-07T00:01:04.2200000Z;2019-03-07T23:53:18.8130000Z;0.084280000;0.085500000;0.083770000;0.085050000;468105.900000000;302
2019-03-08T00:00:00.0000000Z;2019-03-09T00:00:00.0000000Z;2019-03-08T00:00:47.3850000Z;2019-03-08T23:51:20.9630000Z;0.084740000;0.089530000;0.084740000;0.085650000;2361069.200000000;837
2019-03-09T00:00:00.0000000Z;2019-03-10T00:00:00.0000000Z;2019-03-09T00:01:14.6630000Z;2019-03-09T23:59:53.7400000Z;0.085430000;0.091270000;0.085430000;0.089720000;1163617.100000000;580
2019-03-10T00:00:00.0000000Z;2019-03-11T00:00:00.0000000Z;2019-03-10T00:07:26.6820000Z;2019-03-10T23:59:44.6360000Z;0.089740000;0.103690000;0.089070000;0.099710000;5791198.300000000;2351
2019-03-11T00:00:00.0000000Z;2019-03-12T00:00:00.0000000Z;2019-03-11T00:00:01.2060000Z;2019-03-11T23:48:19.4190000Z;0.100110000;0.108810000;0.098560000;0.101760000;5707283.500000000;2373
2019-03-12T00:00:00.0000000Z;2019-03-13T00:00:00.0000000Z;2019-03-12T00:10:19.6720000Z;2019-03-12T23:54:17.4130000Z;0.100740000;0.107490000;0.095720000;0.105380000;5156123.500000000;1811
2019-03-13T00:00:00.0000000Z;2019-03-14T00:00:00.0000000Z;2019-03-13T00:05:51.9730000Z;2019-03-13T23:59:31.5460000Z;0.105150000;0.113990000;0.100000000;0.108810000;4912358.500000000;2121
2019-03-14T00:00:00.0000000Z;2019-03-15T00:00:00.0000000Z;2019-03-14T00:01:39.8730000Z;2019-03-14T23:18:21.0410000Z;0.108430000;0.112000000;0.104400000;0.105950000;4360302.300000000;2024
2019-03-15T00:00:00.0000000Z;2019-03-16T00:00:00.0000000Z;2019-03-15T00:05:24.9980000Z;2019-03-15T23:06:50.0690000Z;0.105740000;0.107240000;0.102330000;0.105220000;1356541.900000000;678
2019-03-16T00:00:00.0000000Z;2019-03-17T00:00:00.0000000Z;2019-03-16T00:00:31.4130000Z;2019-03-16T23:59:08.9010000Z;0.105590000;0.109460000;0.105590000;0.107800000;706899.400000000;510
2019-03-17T00:00:00.0000000Z;2019-03-18T00:00:00.0000000Z;2019-03-17T00:04:58.9970000Z;2019-03-17T23:54:12.5060000Z;0.107800000;0.108480000;0.105600000;0.108450000;840545.500000000;335
2019-03-18T00:00:00.0000000Z;2019-03-19T00:00:00.0000000Z;2019-03-18T00:29:19.0720000Z;2019-03-18T23:55:18.1760000Z;0.108750000;0.118770000;0.105170000;0.115380000;2332605.100000000;1139
2019-03-19T00:00:00.0000000Z;2019-03-20T00:00:00.0000000Z;2019-03-19T00:06:03.1200000Z;2019-03-19T23:56:00.4680000Z;0.115130000;0.118110000;0.089200000;0.111470000;3241773.800000000;1287
2019-03-20T00:00:00.0000000Z;2019-03-21T00:00:00.0000000Z;2019-03-20T00:05:27.1220000Z;2019-03-20T23:52:52.9350000Z;0.111750000;0.111920000;0.108250000;0.108370000;1216714.300000000;542
2019-03-21T00:00:00.0000000Z;2019-03-22T00:00:00.0000000Z;2019-03-21T00:02:04.2960000Z;2019-03-21T23:56:40.2100000Z;0.108420000;0.109530000;0.099900000;0.105320000;1356846.700000000;690
2019-03-22T00:00:00.0000000Z;2019-03-23T00:00:00.0000000Z;2019-03-22T00:06:24.1060000Z;2019-03-22T23:32:15.1240000Z;0.104940000;0.109330000;0.103990000;0.108300000;447183.600000000;436
2019-03-23T00:00:00.0000000Z;2019-03-24T00:00:00.0000000Z;2019-03-23T00:01:11.7010000Z;2019-03-23T23:51:13.8420000Z;0.107750000;0.109110000;0.105220000;0.106330000;446879.700000000;291
2019-03-24T00:00:00.0000000Z;2019-03-25T00:00:00.0000000Z;2019-03-24T00:02:28.7900000Z;2019-03-24T22:36:58.9500000Z;0.105840000;0.106240000;0.103000000;0.103570000;400210.600000000;224
2019-03-25T00:00:00.0000000Z;2019-03-26T00:00:00.0000000Z;2019-03-25T00:00:22.5610000Z;2019-03-25T23:58:08.6820000Z;0.103680000;0.104540000;0.098490000;0.099730000;1020760.900000000;453
2019-03-26T00:00:00.0000000Z;2019-03-27T00:00:00.0000000Z;2019-03-26T00:01:29.6270000Z;2019-03-26T23:26:49.5220000Z;0.099450000;0.103510000;0.097000000;0.101710000;858038.500000000;399
2019-03-27T00:00:00.0000000Z;2019-03-28T00:00:00.0000000Z;2019-03-27T00:36:46.3810000Z;2019-03-27T23:51:55.5450000Z;0.101710000;0.107750000;0.101710000;0.107750000;537100.700000000;428
2019-03-28T00:00:00.0000000Z;2019-03-29T00:00:00.0000000Z;2019-03-28T00:00:22.6970000Z;2019-03-28T23:45:06.7920000Z;0.107130000;0.107130000;0.103100000;0.105600000;461301.700000000;254
2019-03-29T00:00:00.0000000Z;2019-03-30T00:00:00.0000000Z;2019-03-29T00:00:42.0630000Z;2019-03-29T23:39:20.1370000Z;0.105810000;0.107890000;0.105270000;0.107420000;441474.700000000;209
2019-03-30T00:00:00.0000000Z;2019-03-31T00:00:00.0000000Z;2019-03-30T00:07:27.0650000Z;2019-03-30T22:59:00.9100000Z;0.106760000;0.107400000;0.104460000;0.105980000;522129.600000000;468
2019-03-31T00:00:00.0000000Z;2019-04-01T00:00:00.0000000Z;2019-03-31T00:01:13.0050000Z;2019-03-31T23:59:29.5770000Z;0.107030000;0.108030000;0.105680000;0.108030000;414632.200000000;326
2019-04-01T00:00:00.0000000Z;2019-04-02T00:00:00.0000000Z;2019-04-01T00:06:47.5080000Z;2019-04-01T23:54:44.6030000Z;0.107900000;0.110830000;0.106920000;0.110120000;1088881.400000000;600
2019-04-02T00:00:00.0000000Z;2019-04-03T00:00:00.0000000Z;2019-04-02T00:02:43.9510000Z;2019-04-02T23:57:12.7970000Z;0.109840000;0.123220000;0.109660000;0.122760000;3123764.900000000;1883
2019-04-03T00:00:00.0000000Z;2019-04-04T00:00:00.0000000Z;2019-04-03T00:00:25.3280000Z;2019-04-03T23:56:17.5630000Z;0.122660000;0.134940000;0.116340000;0.120590000;6470777.100000000;2649
2019-04-04T00:00:00.0000000Z;2019-04-05T00:00:00.0000000Z;2019-04-04T00:02:42.4080000Z;2019-04-04T23:55:11.2300000Z;0.120190000;0.125130000;0.114600000;0.117500000;957661.000000000;700
2019-04-05T00:00:00.0000000Z;2019-04-06T00:00:00.0000000Z;2019-04-05T00:05:24.3560000Z;2019-04-05T23:59:43.7880000Z;0.118390000;0.130470000;0.118330000;0.127800000;1251755.500000000;615
2019-04-06T00:00:00.0000000Z;2019-04-07T00:00:00.0000000Z;2019-04-06T00:14:51.9830000Z;2019-04-06T23:45:36.6600000Z;0.127460000;0.128600000;0.120000000;0.125070000;1143057.900000000;684
2019-04-07T00:00:00.0000000Z;2019-04-08T00:00:00.0000000Z;2019-04-07T00:34:14.5210000Z;2019-04-07T23:57:21.4300000Z;0.124130000;0.134220000;0.123230000;0.132970000;1434234.000000000;819
2019-04-08T00:00:00.0000000Z;2019-04-09T00:00:00.0000000Z;2019-04-08T00:07:05.8690000Z;2019-04-08T23:38:41.6310000Z;0.133300000;0.136170000;0.125360000;0.131010000;1542502.100000000;1070
2019-04-09T00:00:00.0000000Z;2019-04-10T00:00:00.0000000Z;2019-04-09T00:03:56.4730000Z;2019-04-09T23:59:40.2150000Z;0.130900000;0.131340000;0.124530000;0.125050000;1272188.000000000;768
2019-04-10T00:00:00.0000000Z;2019-04-11T00:00:00.0000000Z;2019-04-10T00:05:23.5080000Z;2019-04-10T22:49:02.7130000Z;0.124740000;0.130000000;0.124390000;0.125370000;2525444.800000000;1366
2019-04-11T00:00:00.0000000Z;2019-04-12T00:00:00.0000000Z;2019-04-11T00:27:35.8720000Z;2019-04-11T23:58:06.1620000Z;0.125560000;0.125790000;0.110000000;0.115380000;2344940.600000000;1517
2019-04-12T00:00:00.0000000Z;2019-04-13T00:00:00.0000000Z;2019-04-12T00:01:29.7430000Z;2019-04-12T23:56:47.2450000Z;0.114840000;0.116670000;0.109840000;0.113670000;701885.200000000;471
2019-04-13T00:00:00.0000000Z;2019-04-14T00:00:00.0000000Z;2019-04-13T00:01:22.8170000Z;2019-04-13T23:59:08.5850000Z;0.113680000;0.117170000;0.112930000;0.115680000;768432.500000000;487
2019-04-14T00:00:00.0000000Z;2019-04-15T00:00:00.0000000Z;2019-04-14T00:00:06.8730000Z;2019-04-14T23:42:24.3950000Z;0.115410000;0.118940000;0.113640000;0.117890000;695564.500000000;415
2019-04-15T00:00:00.0000000Z;2019-04-16T00:00:00.0000000Z;2019-04-15T01:24:06.8830000Z;2019-04-15T23:20:39.4440000Z;0.119160000;0.119690000;0.110550000;0.112760000;559186.300000000;421
2019-04-16T00:00:00.0000000Z;2019-04-17T00:00:00.0000000Z;2019-04-16T00:02:58.9320000Z;2019-04-16T23:53:34.4700000Z;0.112290000;0.116450000;0.110750000;0.114930000;441170.000000000;317
2019-04-17T00:00:00.0000000Z;2019-04-18T00:00:00.0000000Z;2019-04-17T00:10:17.2430000Z;2019-04-17T23:41:41.9650000Z;0.115600000;0.117400000;0.114010000;0.116550000;307121.700000000;246
2019-04-18T00:00:00.0000000Z;2019-04-19T00:00:00.0000000Z;2019-04-18T00:08:24.2850000Z;2019-04-18T23:59:55.8800000Z;0.117270000;0.119910000;0.116140000;0.117940000;716145.700000000;521
2019-04-19T00:00:00.0000000Z;2019-04-20T00:00:00.0000000Z;2019-04-19T00:22:34.0970000Z;2019-04-19T23:49:50.7180000Z;0.117310000;0.117310000;0.114670000;0.115350000;1088389.100000000;534
2019-04-20T00:00:00.0000000Z;2019-04-21T00:00:00.0000000Z;2019-04-20T00:07:08.7160000Z;2019-04-20T23:40:41.8010000Z;0.115570000;0.117870000;0.113770000;0.115900000;253939.700000000;206
2019-04-21T00:00:00.0000000Z;2019-04-22T00:00:00.0000000Z;2019-04-21T01:45:02.3440000Z;2019-04-21T23:55:51.3310000Z;0.115330000;0.116050000;0.107000000;0.112160000;391073.700000000;240
2019-04-22T00:00:00.0000000Z;2019-04-23T00:00:00.0000000Z;2019-04-22T00:19:01.6630000Z;2019-04-22T22:54:56.3780000Z;0.111500000;0.115160000;0.109250000;0.113410000;526992.200000000;309
2019-04-23T00:00:00.0000000Z;2019-04-24T00:00:00.0000000Z;2019-04-23T00:26:55.2740000Z;2019-04-23T23:48:26.7370000Z;0.112330000;0.113860000;0.109460000;0.109780000;658473.900000000;365
2019-04-24T00:00:00.0000000Z;2019-04-25T00:00:00.0000000Z;2019-04-24T00:31:16.4860000Z;2019-04-24T23:26:34.9660000Z;0.109250000;0.109250000;0.099090000;0.102250000;1949754.000000000;894
2019-04-25T00:00:00.0000000Z;2019-04-26T00:00:00.0000000Z;2019-04-25T00:06:29.1570000Z;2019-04-25T23:58:35.1800000Z;0.103020000;0.105550000;0.090140000;0.096620000;1272364.300000000;904
2019-04-26T00:00:00.0000000Z;2019-04-27T00:00:00.0000000Z;2019-04-26T00:01:19.8560000Z;2019-04-26T23:59:53.8980000Z;0.097250000;0.099140000;0.094830000;0.096900000;2160992.200000000;1352
2019-04-27T00:00:00.0000000Z;2019-04-28T00:00:00.0000000Z;2019-04-27T00:00:18.6300000Z;2019-04-27T23:59:42.9240000Z;0.096900000;0.099380000;0.096180000;0.098150000;764442.600000000;506
2019-04-28T00:00:00.0000000Z;2019-04-29T00:00:00.0000000Z;2019-04-28T00:30:24.7580000Z;2019-04-28T23:26:21.3550000Z;0.098370000;0.099020000;0.095090000;0.095460000;1064855.400000000;577
2019-04-29T00:00:00.0000000Z;2019-04-30T00:00:00.0000000Z;2019-04-29T00:57:28.4280000Z;2019-04-29T23:58:34.6160000Z;0.095790000;0.097110000;0.092990000;0.093710000;1282912.100000000;556
2019-04-30T00:00:00.0000000Z;2019-05-01T00:00:00.0000000Z;2019-04-30T00:19:22.4420000Z;2019-04-30T23:44:01.2330000Z;0.093880000;0.099910000;0.093680000;0.099600000;1759992.200000000;667
2019-05-01T00:00:00.0000000Z;2019-05-02T00:00:00.0000000Z;2019-05-01T00:03:28.5430000Z;2019-05-01T23:56:51.1110000Z;0.099440000;0.102430000;0.098560000;0.099890000;1867860.400000000;874
2019-05-02T00:00:00.0000000Z;2019-05-03T00:00:00.0000000Z;2019-05-02T00:11:07.3560000Z;2019-05-02T23:50:49.4080000Z;0.099550000;0.100070000;0.097680000;0.097840000;875618.800000000;460
2019-05-03T00:00:00.0000000Z;2019-05-04T00:00:00.0000000Z;2019-05-03T00:04:55.2110000Z;2019-05-03T23:39:57.9410000Z;0.097620000;0.102520000;0.096460000;0.099090000;2553009.200000000;1320
2019-05-04T00:00:00.0000000Z;2019-05-05T00:00:00.0000000Z;2019-05-04T00:11:07.6200000Z;2019-05-04T23:30:08.0000000Z;0.100510000;0.102550000;0.094500000;0.096830000;1154938.300000000;776
2019-05-05T00:00:00.0000000Z;2019-05-06T00:00:00.0000000Z;2019-05-05T00:11:58.4770000Z;2019-05-05T23:57:02.9830000Z;0.097240000;0.098650000;0.095520000;0.096010000;884009.000000000;643
2019-05-06T00:00:00.0000000Z;2019-05-07T00:00:00.0000000Z;2019-05-06T00:04:00.5470000Z;2019-05-06T23:42:31.4260000Z;0.096310000;0.098280000;0.092610000;0.096260000;1759371.100000000;749
2019-05-07T00:00:00.0000000Z;2019-05-08T00:00:00.0000000Z;2019-05-07T00:06:11.9160000Z;2019-05-07T23:58:33.4200000Z;0.097270000;0.098550000;0.091410000;0.091610000;2012094.500000000;1007
2019-05-08T00:00:00.0000000Z;2019-05-09T00:00:00.0000000Z;2019-05-08T00:00:18.9820000Z;2019-05-08T23:55:42.6790000Z;0.091830000;0.092720000;0.090170000;0.091210000;1515336.500000000;852
2019-05-09T00:00:00.0000000Z;2019-05-10T00:00:00.0000000Z;2019-05-09T00:10:41.2180000Z;2019-05-09T23:51:59.1910000Z;0.091350000;0.092790000;0.085860000;0.088290000;2216714.700000000;1521
2019-05-10T00:00:00.0000000Z;2019-05-11T00:00:00.0000000Z;2019-05-10T00:02:44.4210000Z;2019-05-10T23:05:29.5670000Z;0.087710000;0.092860000;0.086590000;0.091000000;1357512.200000000;875
2019-05-11T00:00:00.0000000Z;2019-05-12T00:00:00.0000000Z;2019-05-11T00:00:33.5980000Z;2019-05-11T23:58:04.4690000Z;0.091750000;0.106240000;0.089820000;0.102280000;2470730.300000000;2011
2019-05-12T00:00:00.0000000Z;2019-05-13T00:00:00.0000000Z;2019-05-12T00:00:20.7100000Z;2019-05-12T23:34:39.5100000Z;0.102280000;0.105930000;0.093100000;0.098520000;3028819.100000000;1543
2019-05-13T00:00:00.0000000Z;2019-05-14T00:00:00.0000000Z;2019-05-13T00:05:12.3250000Z;2019-05-13T23:55:04.5300000Z;0.097720000;0.104000000;0.096300000;0.099700000;2791090.700000000;1535
2019-05-14T00:00:00.0000000Z;2019-05-15T00:00:00.0000000Z;2019-05-14T00:06:14.7080000Z;2019-05-14T23:58:51.6180000Z;0.099550000;0.118130000;0.098930000;0.113650000;4987790.000000000;2993
2019-05-15T00:00:00.0000000Z;2019-05-16T00:00:00.0000000Z;2019-05-15T00:01:22.2100000Z;2019-05-15T23:59:39.8880000Z;0.114010000;0.142230000;0.113730000;0.141060000;5048543.100000000;3509
2019-05-16T00:00:00.0000000Z;2019-05-17T00:00:00.0000000Z;2019-05-16T00:00:08.9170000Z;2019-05-16T23:58:55.2300000Z;0.141990000;0.163770000;0.130990000;0.139110000;11079610.600000000;6493
2019-05-17T00:00:00.0000000Z;2019-05-18T00:00:00.0000000Z;2019-05-17T00:02:05.4120000Z;2019-05-17T23:59:51.5570000Z;0.138790000;0.141280000;0.114500000;0.131350000;7603927.500000000;4365
2019-05-18T00:00:00.0000000Z;2019-05-19T00:00:00.0000000Z;2019-05-18T00:01:07.1460000Z;2019-05-18T23:46:01.8870000Z;0.131360000;0.142180000;0.129000000;0.131590000;2902479.900000000;2278
2019-05-19T00:00:00.0000000Z;2019-05-20T00:00:00.0000000Z;2019-05-19T00:06:10.4170000Z;2019-05-19T23:56:12.5270000Z;0.131030000;0.145780000;0.129760000;0.143430000;2781397.000000000;2058
2019-05-20T00:00:00.0000000Z;2019-05-21T00:00:00.0000000Z;2019-05-20T00:01:23.7890000Z;2019-05-20T23:55:16.5470000Z;0.143670000;0.143670000;0.127460000;0.135720000;1719798.500000000;1661
2019-05-21T00:00:00.0000000Z;2019-05-22T00:00:00.0000000Z;2019-05-21T00:01:28.9600000Z;2019-05-21T23:55:14.9510000Z;0.136330000;0.137450000;0.131920000;0.134750000;2361405.500000000;1320
2019-05-22T00:00:00.0000000Z;2019-05-23T00:00:00.0000000Z;2019-05-22T00:14:57.3490000Z;2019-05-22T23:59:10.9310000Z;0.134750000;0.137990000;0.119360000;0.121580000;2208795.600000000;1380
2019-05-23T00:00:00.0000000Z;2019-05-24T00:00:00.0000000Z;2019-05-23T00:00:21.1990000Z;2019-05-23T23:51:58.4180000Z;0.121530000;0.126270000;0.117550000;0.125170000;1192846.800000000;931
2019-05-24T00:00:00.0000000Z;2019-05-25T00:00:00.0000000Z;2019-05-24T00:01:03.9760000Z;2019-05-24T23:54:29.7900000Z;0.125710000;0.130300000;0.121320000;0.125170000;1952847.000000000;1140
2019-05-25T00:00:00.0000000Z;2019-05-26T00:00:00.0000000Z;2019-05-25T00:03:16.9830000Z;2019-05-25T23:43:25.9530000Z;0.125700000;0.128490000;0.124610000;0.125000000;306966.400000000;338
2019-05-26T00:00:00.0000000Z;2019-05-27T00:00:00.0000000Z;2019-05-26T00:31:09.2780000Z;2019-05-26T23:59:26.1000000Z;0.124740000;0.135520000;0.120710000;0.133190000;2003899.800000000;1351
2019-05-27T00:00:00.0000000Z;2019-05-28T00:00:00.0000000Z;2019-05-27T00:00:49.4580000Z;2019-05-27T23:59:48.2020000Z;0.133760000;0.144320000;0.132190000;0.138200000;2446447.300000000;1724
2019-05-28T00:00:00.0000000Z;2019-05-29T00:00:00.0000000Z;2019-05-28T00:00:16.1400000Z;2019-05-28T23:45:12.2430000Z;0.138090000;0.142000000;0.132490000;0.139470000;2701712.000000000;1710
2019-05-29T00:00:00.0000000Z;2019-05-30T00:00:00.0000000Z;2019-05-29T00:01:29.0450000Z;2019-05-29T23:58:43.7040000Z;0.138760000;0.139430000;0.130550000;0.135960000;1619655.900000000;1206
2019-05-30T00:00:00.0000000Z;2019-05-31T00:00:00.0000000Z;2019-05-30T00:04:34.7790000Z;2019-05-30T23:48:12.6700000Z;0.135240000;0.144210000;0.124000000;0.129390000;3392367.100000000;2354
2019-05-31T00:00:00.0000000Z;2019-06-01T00:00:00.0000000Z;2019-05-31T00:02:09.4460000Z;2019-05-31T23:54:05.5750000Z;0.128860000;0.134470000;0.124000000;0.133560000;1985339.800000000;1231
2019-06-01T00:00:00.0000000Z;2019-06-02T00:00:00.0000000Z;2019-06-01T00:00:49.7140000Z;2019-06-01T23:50:54.2060000Z;0.133560000;0.135000000;0.128630000;0.132250000;1238609.900000000;907
2019-06-02T00:00:00.0000000Z;2019-06-03T00:00:00.0000000Z;2019-06-02T00:03:51.1590000Z;2019-06-02T23:54:34.9090000Z;0.132730000;0.138880000;0.132730000;0.136460000;1110824.300000000;865
2019-06-03T00:00:00.0000000Z;2019-06-04T00:00:00.0000000Z;2019-06-03T00:05:37.6620000Z;2019-06-03T23:59:44.3840000Z;0.136420000;0.140100000;0.127490000;0.127490000;1249234.200000000;1074
2019-06-04T00:00:00.0000000Z;2019-06-05T00:00:00.0000000Z;2019-06-04T00:00:01.3620000Z;2019-06-04T23:55:05.8270000Z;0.127490000;0.127490000;0.114270000;0.120500000;2426485.800000000;1519
2019-06-05T00:00:00.0000000Z;2019-06-06T00:00:00.0000000Z;2019-06-05T00:00:53.0280000Z;2019-06-05T23:52:32.5880000Z;0.120830000;0.125480000;0.118540000;0.121590000;461307.200000000;526
2019-06-06T00:00:00.0000000Z;2019-06-07T00:00:00.0000000Z;2019-06-06T00:09:59.3660000Z;2019-06-06T23:57:46.5310000Z;0.121390000;0.125910000;0.118050000;0.125000000;1375079.800000000;796
2019-06-07T00:00:00.0000000Z;2019-06-08T00:00:00.0000000Z;2019-06-07T00:00:03.8720000Z;2019-06-07T23:43:40.6930000Z;0.125220000;0.130770000;0.124430000;0.127860000;732197.800000000;636
2019-06-08T00:00:00.0000000Z;2019-06-09T00:00:00.0000000Z;2019-06-08T00:05:01.8440000Z;2019-06-08T23:44:09.3600000Z;0.127000000;0.129170000;0.122820000;0.124690000;230030.100000000;224
2019-06-09T00:00:00.0000000Z;2019-06-10T00:00:00.0000000Z;2019-06-09T00:24:00.4630000Z;2019-06-09T23:44:55.1110000Z;0.124440000;0.125020000;0.116880000;0.118910000;554235.200000000;387
2019-06-10T00:00:00.0000000Z;2019-06-11T00:00:00.0000000Z;2019-06-10T00:08:05.5900000Z;2019-06-10T23:58:01.6150000Z;0.117650000;0.124260000;0.117180000;0.123770000;556526.300000000;439
2019-06-11T00:00:00.0000000Z;2019-06-12T00:00:00.0000000Z;2019-06-11T00:00:54.9230000Z;2019-06-11T23:15:10.8940000Z;0.124000000;0.124000000;0.117900000;0.123320000;833810.100000000;462
2019-06-12T00:00:00.0000000Z;2019-06-13T00:00:00.0000000Z;2019-06-12T00:13:08.0270000Z;2019-06-12T23:59:38.4500000Z;0.122780000;0.128230000;0.121200000;0.127700000;1178973.900000000;718
2019-06-13T00:00:00.0000000Z;2019-06-14T00:00:00.0000000Z;2019-06-13T00:00:00.4480000Z;2019-06-13T23:45:10.8890000Z;0.127700000;0.127990000;0.124260000;0.124710000;1079883.100000000;679
2019-06-14T00:00:00.0000000Z;2019-06-15T00:00:00.0000000Z;2019-06-14T00:49:05.4580000Z;2019-06-14T23:31:57.0580000Z;0.124660000;0.125410000;0.120650000;0.125400000;656771.400000000;471
2019-06-15T00:00:00.0000000Z;2019-06-16T00:00:00.0000000Z;2019-06-15T01:03:33.8760000Z;2019-06-15T23:19:13.6110000Z;0.125250000;0.128890000;0.124540000;0.127700000;872193.100000000;595
2019-06-16T00:00:00.0000000Z;2019-06-17T00:00:00.0000000Z;2019-06-16T00:12:27.1100000Z;2019-06-16T23:52:57.4140000Z;0.126730000;0.135000000;0.126350000;0.130000000;1535678.900000000;1048
2019-06-17T00:00:00.0000000Z;2019-06-18T00:00:00.0000000Z;2019-06-17T00:20:30.9890000Z;2019-06-17T23:57:42.7770000Z;0.130960000;0.132120000;0.127110000;0.130690000;1209976.200000000;657
2019-06-18T00:00:00.0000000Z;2019-06-19T00:00:00.0000000Z;2019-06-18T00:05:41.9360000Z;2019-06-18T23:54:49.8890000Z;0.131300000;0.131320000;0.122190000;0.123510000;1603151.100000000;743
2019-06-19T00:00:00.0000000Z;2019-06-20T00:00:00.0000000Z;2019-06-19T00:01:13.7750000Z;2019-06-19T23:54:46.4000000Z;0.123930000;0.126610000;0.123270000;0.124030000;422895.700000000;267
2019-06-20T00:00:00.0000000Z;2019-06-21T00:00:00.0000000Z;2019-06-20T00:04:48.8850000Z;2019-06-20T22:42:29.3230000Z;0.124180000;0.124470000;0.120730000;0.121390000;952684.300000000;428
2019-06-21T00:00:00.0000000Z;2019-06-22T00:00:00.0000000Z;2019-06-21T00:16:19.5040000Z;2019-06-21T23:57:27.7740000Z;0.121720000;0.124960000;0.121700000;0.123720000;1951010.900000000;649
2019-06-22T00:00:00.0000000Z;2019-06-23T00:00:00.0000000Z;2019-06-22T00:04:19.3050000Z;2019-06-22T23:57:00.2730000Z;0.123540000;0.134920000;0.122700000;0.129660000;2994837.300000000;1429
2019-06-23T00:00:00.0000000Z;2019-06-24T00:00:00.0000000Z;2019-06-23T00:05:19.6700000Z;2019-06-23T23:56:02.9190000Z;0.129540000;0.132920000;0.126740000;0.127200000;1454162.400000000;699
2019-06-24T00:00:00.0000000Z;2019-06-25T00:00:00.0000000Z;2019-06-24T00:00:12.1600000Z;2019-06-24T23:49:45.6310000Z;0.127200000;0.128380000;0.124280000;0.127980000;927640.300000000;405
2019-06-25T00:00:00.0000000Z;2019-06-26T00:00:00.0000000Z;2019-06-25T00:00:19.8810000Z;2019-06-25T23:59:09.5450000Z;0.128320000;0.129580000;0.120880000;0.123330000;994400.900000000;520
2019-06-26T00:00:00.0000000Z;2019-06-27T00:00:00.0000000Z;2019-06-26T00:01:31.6490000Z;2019-06-26T23:59:14.6980000Z;0.123080000;0.132500000;0.110000000;0.121500000;3449426.400000000;1400
2019-06-27T00:00:00.0000000Z;2019-06-28T00:00:00.0000000Z;2019-06-27T00:02:42.6890000Z;2019-06-27T23:59:13.4540000Z;0.121060000;0.122500000;0.101320000;0.108740000;3100403.700000000;1343
2019-06-28T00:00:00.0000000Z;2019-06-29T00:00:00.0000000Z;2019-06-28T00:01:34.4730000Z;2019-06-28T23:46:53.8470000Z;0.107050000;0.112030000;0.106460000;0.111000000;1338317.500000000;809
2019-06-29T00:00:00.0000000Z;2019-06-30T00:00:00.0000000Z;2019-06-29T00:06:22.2150000Z;2019-06-29T23:55:59.3060000Z;0.111000000;0.118200000;0.101000000;0.115400000;1466118.300000000;517
2019-06-30T00:00:00.0000000Z;2019-07-01T00:00:00.0000000Z;2019-06-30T01:29:48.7170000Z;2019-06-30T23:59:29.7360000Z;0.113470000;0.113700000;0.103090000;0.103920000;904667.300000000;448
2019-07-01T00:00:00.0000000Z;2019-07-02T00:00:00.0000000Z;2019-07-01T00:04:38.1210000Z;2019-07-01T23:29:56.2540000Z;0.103470000;0.109140000;0.100930000;0.105910000;1195798.700000000;587
2019-07-02T00:00:00.0000000Z;2019-07-03T00:00:00.0000000Z;2019-07-02T00:03:33.5300000Z;2019-07-02T23:56:08.1860000Z;0.106130000;0.106130000;0.099710000;0.103000000;1284570.700000000;619
2019-07-03T00:00:00.0000000Z;2019-07-04T00:00:00.0000000Z;2019-07-03T00:02:34.9900000Z;2019-07-03T23:34:41.2880000Z;0.103030000;0.105790000;0.102120000;0.105570000;934046.300000000;312
2019-07-04T00:00:00.0000000Z;2019-07-05T00:00:00.0000000Z;2019-07-04T00:04:32.4490000Z;2019-07-04T23:49:39.6660000Z;0.104750000;0.105800000;0.098780000;0.098780000;1764967.300000000;563
2019-07-05T00:00:00.0000000Z;2019-07-06T00:00:00.0000000Z;2019-07-05T00:00:23.4460000Z;2019-07-05T23:05:14.4510000Z;0.098620000;0.101540000;0.098560000;0.099480000;442132.200000000;224
2019-07-06T00:00:00.0000000Z;2019-07-07T00:00:00.0000000Z;2019-07-06T00:04:50.9230000Z;2019-07-06T22:30:08.4300000Z;0.100720000;0.106360000;0.100640000;0.103750000;500616.300000000;251
2019-07-07T00:00:00.0000000Z;2019-07-08T00:00:00.0000000Z;2019-07-07T00:04:17.5090000Z;2019-07-07T23:09:50.1800000Z;0.102890000;0.106430000;0.102360000;0.105370000;478916.800000000;239
2019-07-08T00:00:00.0000000Z;2019-07-09T00:00:00.0000000Z;2019-07-08T00:02:17.2530000Z;2019-07-08T23:57:45.1380000Z;0.106310000;0.106310000;0.103920000;0.104280000;198285.300000000;107
2019-07-09T00:00:00.0000000Z;2019-07-10T00:00:00.0000000Z;2019-07-09T00:09:18.5290000Z;2019-07-09T23:58:35.5030000Z;0.104590000;0.104930000;0.100310000;0.101770000;2059034.900000000;669
2019-07-10T00:00:00.0000000Z;2019-07-11T00:00:00.0000000Z;2019-07-10T00:08:04.5610000Z;2019-07-10T23:28:40.8230000Z;0.101950000;0.101950000;0.091810000;0.094410000;1811687.700000000;770
2019-07-11T00:00:00.0000000Z;2019-07-12T00:00:00.0000000Z;2019-07-11T00:06:16.0610000Z;2019-07-11T23:57:24.5740000Z;0.094600000;0.094800000;0.085220000;0.086900000;1744986.300000000;703
2019-07-12T00:00:00.0000000Z;2019-07-13T00:00:00.0000000Z;2019-07-12T00:18:23.5360000Z;2019-07-12T23:41:31.3770000Z;0.087350000;0.102000000;0.086670000;0.097800000;1972077.300000000;755
2019-07-13T00:00:00.0000000Z;2019-07-14T00:00:00.0000000Z;2019-07-13T00:07:48.9420000Z;2019-07-13T23:42:04.9610000Z;0.099090000;0.100890000;0.091530000;0.095640000;786610.500000000;325
2019-07-14T00:00:00.0000000Z;2019-07-15T00:00:00.0000000Z;2019-07-14T00:43:47.5920000Z;2019-07-14T23:56:23.0810000Z;0.095560000;0.096750000;0.084890000;0.086330000;626025.900000000;325
2019-07-15T00:00:00.0000000Z;2019-07-16T00:00:00.0000000Z;2019-07-15T00:04:31.5580000Z;2019-07-15T23:31:32.2490000Z;0.084890000;0.087840000;0.082000000;0.086490000;880557.700000000;428
2019-07-16T00:00:00.0000000Z;2019-07-17T00:00:00.0000000Z;2019-07-16T00:13:35.1060000Z;2019-07-16T23:57:59.5050000Z;0.086460000;0.088390000;0.077630000;0.078430000;1347862.100000000;539
2019-07-17T00:00:00.0000000Z;2019-07-18T00:00:00.0000000Z;2019-07-17T00:09:39.7670000Z;2019-07-17T23:49:58.3720000Z;0.079220000;0.084060000;0.075870000;0.080910000;1269148.100000000;534
2019-07-18T00:00:00.0000000Z;2019-07-19T00:00:00.0000000Z;2019-07-18T00:20:52.8050000Z;2019-07-18T23:52:40.8620000Z;0.080040000;0.093500000;0.080040000;0.088310000;2861927.700000000;1032
2019-07-19T00:00:00.0000000Z;2019-07-20T00:00:00.0000000Z;2019-07-19T00:05:06.5760000Z;2019-07-19T23:49:11.8300000Z;0.088000000;0.095080000;0.086900000;0.093100000;2076508.600000000;868
2019-07-20T00:00:00.0000000Z;2019-07-21T00:00:00.0000000Z;2019-07-20T00:13:00.3830000Z;2019-07-20T23:54:10.8600000Z;0.092700000;0.097750000;0.091860000;0.094900000;2193876.100000000;760
2019-07-21T00:00:00.0000000Z;2019-07-22T00:00:00.0000000Z;2019-07-21T01:24:45.3750000Z;2019-07-21T23:42:01.9850000Z;0.094360000;0.094540000;0.088500000;0.091240000;972527.100000000;357
2019-07-22T00:00:00.0000000Z;2019-07-23T00:00:00.0000000Z;2019-07-22T00:22:29.0300000Z;2019-07-22T23:44:34.0160000Z;0.091430000;0.091480000;0.085980000;0.088470000;937611.600000000;387
2019-07-23T00:00:00.0000000Z;2019-07-24T00:00:00.0000000Z;2019-07-23T01:28:13.6920000Z;2019-07-23T23:59:21.9810000Z;0.087320000;0.088200000;0.083000000;0.083900000;1268035.800000000;416
2019-07-24T00:00:00.0000000Z;2019-07-25T00:00:00.0000000Z;2019-07-24T00:01:33.9020000Z;2019-07-24T23:45:32.4330000Z;0.083900000;0.086500000;0.081440000;0.086020000;875195.900000000;364
2019-07-25T00:00:00.0000000Z;2019-07-26T00:00:00.0000000Z;2019-07-25T00:03:45.3300000Z;2019-07-25T23:44:15.1500000Z;0.085560000;0.087880000;0.084930000;0.085770000;520577.800000000;265
2019-07-26T00:00:00.0000000Z;2019-07-27T00:00:00.0000000Z;2019-07-26T00:15:44.5820000Z;2019-07-26T22:41:17.1790000Z;0.085170000;0.089810000;0.083390000;0.087680000;695078.300000000;317
2019-07-27T00:00:00.0000000Z;2019-07-28T00:00:00.0000000Z;2019-07-27T00:00:32.9270000Z;2019-07-27T23:56:15.8250000Z;0.087890000;0.089970000;0.082890000;0.084240000;487038.500000000;269
2019-07-28T00:00:00.0000000Z;2019-07-29T00:00:00.0000000Z;2019-07-28T00:10:52.8820000Z;2019-07-28T23:44:01.1190000Z;0.083480000;0.084740000;0.080590000;0.083980000;594611.700000000;293
2019-07-29T00:00:00.0000000Z;2019-07-30T00:00:00.0000000Z;2019-07-29T00:00:01.6670000Z;2019-07-29T23:49:35.6560000Z;0.083980000;0.085420000;0.082640000;0.082950000;935171.300000000;281
2019-07-30T00:00:00.0000000Z;2019-07-31T00:00:00.0000000Z;2019-07-30T00:51:18.0510000Z;2019-07-30T22:42:31.8930000Z;0.083080000;0.084740000;0.081830000;0.083450000;235580.400000000;197
2019-07-31T00:00:00.0000000Z;2019-08-01T00:00:00.0000000Z;2019-07-31T00:16:15.5770000Z;2019-07-31T23:54:21.4340000Z;0.083890000;0.085470000;0.082790000;0.083890000;1334549.200000000;488
2019-08-01T00:00:00.0000000Z;2019-08-02T00:00:00.0000000Z;2019-08-01T00:03:05.7120000Z;2019-08-01T23:26:16.3110000Z;0.083980000;0.083980000;0.081680000;0.082790000;454126.800000000;268
2019-08-02T00:00:00.0000000Z;2019-08-03T00:00:00.0000000Z;2019-08-02T00:21:19.9280000Z;2019-08-02T23:50:22.4780000Z;0.082700000;0.083380000;0.081710000;0.081870000;667736.300000000;213
2019-08-03T00:00:00.0000000Z;2019-08-04T00:00:00.0000000Z;2019-08-03T00:00:10.8560000Z;2019-08-03T23:26:53.3800000Z;0.081920000;0.083000000;0.081730000;0.082300000;462178.100000000;187
2019-08-04T00:00:00.0000000Z;2019-08-05T00:00:00.0000000Z;2019-08-04T00:14:53.6270000Z;2019-08-04T23:00:02.2740000Z;0.082580000;0.082870000;0.080200000;0.082370000;1522095.800000000;324
2019-08-05T00:00:00.0000000Z;2019-08-06T00:00:00.0000000Z;2019-08-05T00:43:11.7580000Z;2019-08-05T22:57:09.4570000Z;0.082120000;0.084390000;0.081400000;0.082720000;1005474.200000000;387
2019-08-06T00:00:00.0000000Z;2019-08-07T00:00:00.0000000Z;2019-08-06T00:01:18.5070000Z;2019-08-06T23:52:47.9580000Z;0.082120000;0.082260000;0.076710000;0.078240000;1536197.200000000;484
2019-08-07T00:00:00.0000000Z;2019-08-08T00:00:00.0000000Z;2019-08-07T00:07:33.0200000Z;2019-08-07T23:47:02.0380000Z;0.078100000;0.079120000;0.076620000;0.078680000;1279487.000000000;308
2019-08-08T00:00:00.0000000Z;2019-08-09T00:00:00.0000000Z;2019-08-08T00:04:23.6380000Z;2019-08-08T23:48:26.4660000Z;0.078520000;0.078520000;0.076000000;0.077000000;967712.900000000;269
2019-08-09T00:00:00.0000000Z;2019-08-10T00:00:00.0000000Z;2019-08-09T00:14:00.5050000Z;2019-08-09T23:45:02.6660000Z;0.076690000;0.076780000;0.071540000;0.071650000;627769.000000000;316
2019-08-10T00:00:00.0000000Z;2019-08-11T00:00:00.0000000Z;2019-08-10T00:10:59.7230000Z;2019-08-10T23:29:51.6750000Z;0.072090000;0.073990000;0.070970000;0.073870000;598348.300000000;249
2019-08-11T00:00:00.0000000Z;2019-08-12T00:00:00.0000000Z;2019-08-11T00:00:48.7940000Z;2019-08-11T22:50:44.6670000Z;0.073680000;0.079700000;0.073680000;0.077580000;394995.700000000;224
2019-08-12T00:00:00.0000000Z;2019-08-13T00:00:00.0000000Z;2019-08-12T00:25:55.1810000Z;2019-08-12T22:20:06.5420000Z;0.078000000;0.078010000;0.075320000;0.075530000;215428.400000000;123
2019-08-13T00:00:00.0000000Z;2019-08-14T00:00:00.0000000Z;2019-08-13T00:24:54.7150000Z;2019-08-13T22:01:11.3100000Z;0.075090000;0.075550000;0.072490000;0.073970000;719721.300000000;245
2019-08-14T00:00:00.0000000Z;2019-08-15T00:00:00.0000000Z;2019-08-14T00:05:19.2000000Z;2019-08-14T23:57:29.5940000Z;0.074000000;0.074130000;0.067130000;0.068890000;2593697.900000000;618
2019-08-15T00:00:00.0000000Z;2019-08-16T00:00:00.0000000Z;2019-08-15T00:00:51.8890000Z;2019-08-15T23:27:51.8390000Z;0.069290000;0.070650000;0.067240000;0.070580000;344288.700000000;178
2019-08-16T00:00:00.0000000Z;2019-08-17T00:00:00.0000000Z;2019-08-16T01:29:28.9400000Z;2019-08-16T23:56:22.3610000Z;0.069920000;0.070230000;0.067130000;0.069080000;608783.900000000;245
2019-08-17T00:00:00.0000000Z;2019-08-18T00:00:00.0000000Z;2019-08-17T00:05:32.7440000Z;2019-08-17T22:51:26.3290000Z;0.068250000;0.069210000;0.066680000;0.067570000;280165.000000000;85
2019-08-18T00:00:00.0000000Z;2019-08-19T00:00:00.0000000Z;2019-08-18T00:52:18.6260000Z;2019-08-18T23:18:54.6330000Z;0.067570000;0.071440000;0.067440000;0.070740000;266701.200000000;150
2019-08-19T00:00:00.0000000Z;2019-08-20T00:00:00.0000000Z;2019-08-19T00:12:38.0960000Z;2019-08-19T23:57:09.3400000Z;0.070810000;0.071830000;0.070340000;0.071700000;175868.100000000;64
2019-08-20T00:00:00.0000000Z;2019-08-21T00:00:00.0000000Z;2019-08-20T00:19:31.2210000Z;2019-08-20T23:53:56.4280000Z;0.071580000;0.071580000;0.068640000;0.068710000;84776.800000000;63
2019-08-21T00:00:00.0000000Z;2019-08-22T00:00:00.0000000Z;2019-08-21T00:37:18.2120000Z;2019-08-21T23:39:44.9570000Z;0.068600000;0.068710000;0.065640000;0.066780000;307336.100000000;146
2019-08-22T00:00:00.0000000Z;2019-08-23T00:00:00.0000000Z;2019-08-22T00:01:12.3210000Z;2019-08-22T22:13:38.3330000Z;0.067180000;0.069420000;0.065500000;0.068430000;136631.200000000;110
2019-08-23T00:00:00.0000000Z;2019-08-24T00:00:00.0000000Z;2019-08-23T00:05:41.8520000Z;2019-08-23T23:51:31.1810000Z;0.067910000;0.069410000;0.067520000;0.069290000;416304.200000000;152
2019-08-24T00:00:00.0000000Z;2019-08-25T00:00:00.0000000Z;2019-08-24T00:07:22.7930000Z;2019-08-24T22:57:34.9220000Z;0.069330000;0.070850000;0.067890000;0.070850000;279391.200000000;117
2019-08-25T00:00:00.0000000Z;2019-08-26T00:00:00.0000000Z;2019-08-25T01:13:10.1610000Z;2019-08-25T23:41:00.0620000Z;0.070180000;0.071960000;0.068190000;0.069290000;396539.000000000;152
2019-08-26T00:00:00.0000000Z;2019-08-27T00:00:00.0000000Z;2019-08-26T00:14:37.7190000Z;2019-08-26T20:22:35.1220000Z;0.069640000;0.071110000;0.068940000;0.068940000;142979.200000000;53
2019-08-27T00:00:00.0000000Z;2019-08-28T00:00:00.0000000Z;2019-08-27T00:45:32.0200000Z;2019-08-27T23:54:32.5810000Z;0.069310000;0.069310000;0.067430000;0.068380000;197201.300000000;109
2019-08-28T00:00:00.0000000Z;2019-08-29T00:00:00.0000000Z;2019-08-28T01:04:53.9660000Z;2019-08-28T23:55:59.9700000Z;0.068060000;0.068060000;0.063260000;0.063950000;894557.600000000;365
2019-08-29T00:00:00.0000000Z;2019-08-30T00:00:00.0000000Z;2019-08-29T00:06:01.1150000Z;2019-08-29T23:13:29.8160000Z;0.063770000;0.063770000;0.060490000;0.061090000;1358353.200000000;384
2019-08-30T00:00:00.0000000Z;2019-08-31T00:00:00.0000000Z;2019-08-30T00:00:54.3100000Z;2019-08-30T23:32:24.7660000Z;0.061680000;0.077290000;0.061350000;0.062370000;1752915.900000000;358
2019-08-31T00:00:00.0000000Z;2019-09-01T00:00:00.0000000Z;2019-08-31T02:22:48.4670000Z;2019-08-31T23:41:42.7520000Z;0.062210000;0.062640000;0.060340000;0.062100000;1320181.400000000;306
2019-09-01T00:00:00.0000000Z;2019-09-02T00:00:00.0000000Z;2019-09-01T01:07:50.0710000Z;2019-09-01T21:55:47.3610000Z;0.062080000;0.062620000;0.061120000;0.062110000;112106.400000000;65
2019-09-02T00:00:00.0000000Z;2019-09-03T00:00:00.0000000Z;2019-09-02T01:00:29.1940000Z;2019-09-02T23:23:03.4860000Z;0.062180000;0.063590000;0.061180000;0.063440000;1212232.800000000;262
2019-09-03T00:00:00.0000000Z;2019-09-04T00:00:00.0000000Z;2019-09-03T00:02:25.0080000Z;2019-09-03T23:45:07.1630000Z;0.063240000;0.063870000;0.062280000;0.062930000;798881.400000000;242
2019-09-04T00:00:00.0000000Z;2019-09-05T00:00:00.0000000Z;2019-09-04T00:05:48.5950000Z;2019-09-04T23:00:06.4330000Z;0.062840000;0.062890000;0.061360000;0.061410000;1305385.200000000;260
2019-09-05T00:00:00.0000000Z;2019-09-06T00:00:00.0000000Z;2019-09-05T00:02:16.9100000Z;2019-09-05T23:52:19.7210000Z;0.061840000;0.061840000;0.059940000;0.060320000;357728.700000000;169
2019-09-06T00:00:00.0000000Z;2019-09-07T00:00:00.0000000Z;2019-09-06T00:19:10.5050000Z;2019-09-06T23:11:55.0560000Z;0.060170000;0.061000000;0.057710000;0.058330000;824734.600000000;297
2019-09-07T00:00:00.0000000Z;2019-09-08T00:00:00.0000000Z;2019-09-07T00:42:28.3490000Z;2019-09-07T23:43:49.9230000Z;0.058320000;0.061130000;0.058320000;0.060590000;792063.000000000;167
2019-09-08T00:00:00.0000000Z;2019-09-09T00:00:00.0000000Z;2019-09-08T03:17:39.0220000Z;2019-09-08T22:03:06.3050000Z;0.061070000;0.061920000;0.060080000;0.061030000;154406.000000000;67
2019-09-09T00:00:00.0000000Z;2019-09-10T00:00:00.0000000Z;2019-09-09T00:39:41.9000000Z;2019-09-09T23:58:20.9790000Z;0.061140000;0.061580000;0.059320000;0.060240000;312496.800000000;125
2019-09-10T00:00:00.0000000Z;2019-09-11T00:00:00.0000000Z;2019-09-10T00:03:05.1910000Z;2019-09-10T23:50:54.4540000Z;0.060350000;0.060970000;0.058950000;0.059670000;225556.800000000;117
2019-09-11T00:00:00.0000000Z;2019-09-12T00:00:00.0000000Z;2019-09-11T00:14:52.6960000Z;2019-09-11T23:50:53.3940000Z;0.059770000;0.060080000;0.058100000;0.058550000;214058.600000000;110
2019-09-12T00:00:00.0000000Z;2019-09-13T00:00:00.0000000Z;2019-09-12T01:45:04.4120000Z;2019-09-12T23:58:51.6970000Z;0.058410000;0.058450000;0.057740000;0.058440000;183406.800000000;95
2019-09-13T00:00:00.0000000Z;2019-09-14T00:00:00.0000000Z;2019-09-13T00:00:26.7500000Z;2019-09-13T23:42:12.4920000Z;0.058440000;0.058650000;0.057490000;0.057910000;117027.900000000;60
2019-09-14T00:00:00.0000000Z;2019-09-15T00:00:00.0000000Z;2019-09-14T01:30:01.1330000Z;2019-09-14T23:50:49.4460000Z;0.057610000;0.059430000;0.057300000;0.058850000;306219.600000000;202
2019-09-15T00:00:00.0000000Z;2019-09-16T00:00:00.0000000Z;2019-09-15T01:05:45.2240000Z;2019-09-15T23:59:47.1140000Z;0.058890000;0.059000000;0.058060000;0.058350000;786383.300000000;138
2019-09-16T00:00:00.0000000Z;2019-09-17T00:00:00.0000000Z;2019-09-16T00:08:16.6450000Z;2019-09-16T23:17:22.0570000Z;0.058350000;0.059170000;0.058000000;0.058620000;477606.500000000;125
2019-09-17T00:00:00.0000000Z;2019-09-18T00:00:00.0000000Z;2019-09-17T01:19:47.1460000Z;2019-09-17T23:57:13.5840000Z;0.058320000;0.066680000;0.058200000;0.063610000;921318.600000000;376
2019-09-18T00:00:00.0000000Z;2019-09-19T00:00:00.0000000Z;2019-09-18T00:45:43.1410000Z;2019-09-18T23:59:34.3830000Z;0.064450000;0.089850000;0.064450000;0.082650000;5766332.300000000;2097
2019-09-19T00:00:00.0000000Z;2019-09-20T00:00:00.0000000Z;2019-09-19T00:00:55.0930000Z;2019-09-19T23:46:50.9320000Z;0.082650000;0.088500000;0.074030000;0.081130000;3352416.800000000;1547
2019-09-20T00:00:00.0000000Z;2019-09-21T00:00:00.0000000Z;2019-09-20T00:02:45.9590000Z;2019-09-20T23:42:51.5460000Z;0.080600000;0.080680000;0.070490000;0.072180000;2872152.700000000;1457
2019-09-21T00:00:00.0000000Z;2019-09-22T00:00:00.0000000Z;2019-09-21T00:00:30.5600000Z;2019-09-21T23:30:24.1380000Z;0.071860000;0.073660000;0.069000000;0.069530000;1800156.600000000;539
2019-09-22T00:00:00.0000000Z;2019-09-23T00:00:00.0000000Z;2019-09-22T00:10:27.6750000Z;2019-09-22T23:48:32.0760000Z;0.069540000;0.069790000;0.066680000;0.068190000;1103256.000000000;429
2019-09-23T00:00:00.0000000Z;2019-09-24T00:00:00.0000000Z;2019-09-23T00:04:34.7460000Z;2019-09-23T23:44:59.6110000Z;0.068220000;0.068970000;0.063440000;0.063590000;1473557.100000000;481
2019-09-24T00:00:00.0000000Z;2019-09-25T00:00:00.0000000Z;2019-09-24T00:07:06.8660000Z;2019-09-24T23:59:30.1030000Z;0.063180000;0.064810000;0.050740000;0.053140000;2276227.300000000;915
2019-09-25T00:00:00.0000000Z;2019-09-26T00:00:00.0000000Z;2019-09-25T00:03:35.5920000Z;2019-09-25T23:50:46.0950000Z;0.053300000;0.059780000;0.051960000;0.057470000;917669.500000000;600
2019-09-26T00:00:00.0000000Z;2019-09-27T00:00:00.0000000Z;2019-09-26T00:07:25.0210000Z;2019-09-26T23:59:14.2280000Z;0.057610000;0.062170000;0.053680000;0.058380000;3314311.600000000;1261
2019-09-27T00:00:00.0000000Z;2019-09-28T00:00:00.0000000Z;2019-09-27T00:34:36.8480000Z;2019-09-27T23:59:01.4630000Z;0.059080000;0.059400000;0.055800000;0.058920000;585610.500000000;368
2019-09-28T00:00:00.0000000Z;2019-09-29T00:00:00.0000000Z;2019-09-28T00:00:49.4510000Z;2019-09-28T22:49:58.9010000Z;0.058840000;0.059220000;0.057190000;0.058780000;701742.000000000;266
2019-09-29T00:00:00.0000000Z;2019-09-30T00:00:00.0000000Z;2019-09-29T00:07:08.3070000Z;2019-09-29T23:59:01.7450000Z;0.058630000;0.058630000;0.056620000;0.058020000;235472.000000000;183
2019-09-30T00:00:00.0000000Z;2019-10-01T00:00:00.0000000Z;2019-09-30T00:00:11.0400000Z;2019-09-30T23:58:50.1520000Z;0.058020000;0.062350000;0.056480000;0.061930000;1152096.600000000;492
2019-10-01T00:00:00.0000000Z;2019-10-02T00:00:00.0000000Z;2019-10-01T00:00:14.7860000Z;2019-10-01T23:03:43.5220000Z;0.062000000;0.062290000;0.058180000;0.059190000;842802.500000000;387
2019-10-02T00:00:00.0000000Z;2019-10-03T00:00:00.0000000Z;2019-10-02T00:00:53.6510000Z;2019-10-02T23:24:16.1710000Z;0.058600000;0.059830000;0.057440000;0.059710000;331106.400000000;190
2019-10-03T00:00:00.0000000Z;2019-10-04T00:00:00.0000000Z;2019-10-03T00:11:32.2990000Z;2019-10-03T23:38:36.2740000Z;0.059710000;0.059710000;0.057890000;0.058560000;175161.900000000;138
2019-10-04T00:00:00.0000000Z;2019-10-05T00:00:00.0000000Z;2019-10-04T00:02:15.9190000Z;2019-10-04T23:39:48.7010000Z;0.058560000;0.059850000;0.057760000;0.058690000;434346.500000000;281
2019-10-05T00:00:00.0000000Z;2019-10-06T00:00:00.0000000Z;2019-10-05T00:06:48.3250000Z;2019-10-05T23:38:56.0390000Z;0.058690000;0.059290000;0.058300000;0.058980000;452294.100000000;168
2019-10-06T00:00:00.0000000Z;2019-10-07T00:00:00.0000000Z;2019-10-06T00:00:21.7620000Z;2019-10-06T23:50:05.0440000Z;0.059160000;0.059460000;0.057180000;0.058540000;415123.300000000;279
2019-10-07T00:00:00.0000000Z;2019-10-08T00:00:00.0000000Z;2019-10-07T00:18:46.1200000Z;2019-10-07T23:28:14.1390000Z;0.058180000;0.063490000;0.058160000;0.062540000;1037407.300000000;613
2019-10-08T00:00:00.0000000Z;2019-10-09T00:00:00.0000000Z;2019-10-08T00:58:59.7040000Z;2019-10-08T23:45:14.5260000Z;0.062240000;0.063810000;0.060860000;0.061930000;937928.600000000;342
2019-10-09T00:00:00.0000000Z;2019-10-10T00:00:00.0000000Z;2019-10-09T00:05:10.1570000Z;2019-10-09T23:26:36.5330000Z;0.061930000;0.065090000;0.061210000;0.063220000;961343.800000000;478
2019-10-10T00:00:00.0000000Z;2019-10-11T00:00:00.0000000Z;2019-10-10T00:04:47.4230000Z;2019-10-10T23:13:20.4220000Z;0.063230000;0.063330000;0.060990000;0.061620000;427339.900000000;326
2019-10-11T00:00:00.0000000Z;2019-10-12T00:00:00.0000000Z;2019-10-11T00:15:34.3100000Z;2019-10-11T16:18:34.5770000Z;0.061650000;0.062960000;0.059190000;0.060870000;1085519.300000000;568
